tutorial/05-fullAdder/simulation/qsim/fullAdder.msim.vcd
$comment
	File created using the following command:
		vcd file fullAdder.msim.vcd -direction
$end
$date
	Fri Apr 14 16:27:40 2023
$end
$version
	ModelSim Version 10.5b
$end
$timescale
	1ps
$end

$scope module fullAdder_vlg_vec_tst $end
$var reg 1 ! A $end
$var reg 1 " B $end
$var reg 1 # C $end
$var wire 1 $ Ci $end
$var wire 1 % S $end

$scope module i1 $end
$var wire 1 & gnd $end
$var wire 1 ' vcc $end
$var wire 1 ( unknown $end
$var tri1 1 ) devclrn $end
$var tri1 1 * devpor $end
$var tri1 1 + devoe $end
$var wire 1 , ~QUARTUS_CREATED_GND~I_combout $end
$var wire 1 - ~QUARTUS_CREATED_UNVM~~busy $end
$var wire 1 . ~QUARTUS_CREATED_ADC1~~eoc $end
$var wire 1 / ~QUARTUS_CREATED_ADC2~~eoc $end
$var wire 1 0 Ci~output_o $end
$var wire 1 1 S~output_o $end
$var wire 1 2 B~input_o $end
$var wire 1 3 A~input_o $end
$var wire 1 4 C~input_o $end
$var wire 1 5 inst2~0_combout $end
$var wire 1 6 inst1|inst2~0_combout $end
$upscope $end
$upscope $end
$enddefinitions $end
#0
$dumpvars
0!
0"
0#
0$
0%
0&
1'
x(
1)
1*
1+
0,
z-
z.
z/
00
01
02
03
04
05
06
$end
#50000
1#
14
16
11
1%
#100000
1"
0#
04
12
#150000
1#
14
06
15
10
01
0%
1$
#200000
1!
0"
0#
04
02
13
16
05
00
11
1%
0$
#250000
1#
14
06
15
10
01
0%
1$
#300000
1"
0#
04
12
#350000
1#
14
16
11
1%
#400000
0!
0"
0#
04
02
03
06
05
00
01
0%
0$
#450000
1#
14
16
11
1%
#500000
1"
0#
04
12
#550000
1#
14
06
15
10
01
0%
1$
#600000
1!
0"
0#
04
02
13
16
05
00
11
1%
0$
#650000
1#
14
06
15
10
01
0%
1$
#700000
1"
0#
04
12
#750000
1#
14
16
11
1%
#800000
0!
0"
0#
04
02
03
06
05
00
01
0%
0$
#850000
1#
14
16
11
1%
#900000
1"
0#
04
12
#950000
1#
14
06
15
10
01
0%
1$
