tutorial/11-VHDL-pwm/simulation/qsim/pwm.msim.vcd
$comment
	File created using the following command:
		vcd file pwm.msim.vcd -direction
$end
$date
	Sun Jul 02 01:47:05 2023
$end
$version
	ModelSim Version 10.5b
$end
$timescale
	1ps
$end

$scope module pwm_vhd_vec_tst $end
$var wire 1 ! clk $end
$var wire 1 " cnt_out [7] $end
$var wire 1 # cnt_out [6] $end
$var wire 1 $ cnt_out [5] $end
$var wire 1 % cnt_out [4] $end
$var wire 1 & cnt_out [3] $end
$var wire 1 ' cnt_out [2] $end
$var wire 1 ( cnt_out [1] $end
$var wire 1 ) cnt_out [0] $end
$var wire 1 * offt_i [7] $end
$var wire 1 + offt_i [6] $end
$var wire 1 , offt_i [5] $end
$var wire 1 - offt_i [4] $end
$var wire 1 . offt_i [3] $end
$var wire 1 / offt_i [2] $end
$var wire 1 0 offt_i [1] $end
$var wire 1 1 offt_i [0] $end
$var wire 1 2 period_i [7] $end
$var wire 1 3 period_i [6] $end
$var wire 1 4 period_i [5] $end
$var wire 1 5 period_i [4] $end
$var wire 1 6 period_i [3] $end
$var wire 1 7 period_i [2] $end
$var wire 1 8 period_i [1] $end
$var wire 1 9 period_i [0] $end
$var wire 1 : pwm_out $end
$var wire 1 ; rst $end

$scope module i1 $end
$var wire 1 < gnd $end
$var wire 1 = vcc $end
$var wire 1 > unknown $end
$var wire 1 ? devoe $end
$var wire 1 @ devclrn $end
$var wire 1 A devpor $end
$var wire 1 B ww_devoe $end
$var wire 1 C ww_devclrn $end
$var wire 1 D ww_devpor $end
$var wire 1 E ww_clk $end
$var wire 1 F ww_rst $end
$var wire 1 G ww_offt_i [7] $end
$var wire 1 H ww_offt_i [6] $end
$var wire 1 I ww_offt_i [5] $end
$var wire 1 J ww_offt_i [4] $end
$var wire 1 K ww_offt_i [3] $end
$var wire 1 L ww_offt_i [2] $end
$var wire 1 M ww_offt_i [1] $end
$var wire 1 N ww_offt_i [0] $end
$var wire 1 O ww_period_i [7] $end
$var wire 1 P ww_period_i [6] $end
$var wire 1 Q ww_period_i [5] $end
$var wire 1 R ww_period_i [4] $end
$var wire 1 S ww_period_i [3] $end
$var wire 1 T ww_period_i [2] $end
$var wire 1 U ww_period_i [1] $end
$var wire 1 V ww_period_i [0] $end
$var wire 1 W ww_cnt_out [7] $end
$var wire 1 X ww_cnt_out [6] $end
$var wire 1 Y ww_cnt_out [5] $end
$var wire 1 Z ww_cnt_out [4] $end
$var wire 1 [ ww_cnt_out [3] $end
$var wire 1 \ ww_cnt_out [2] $end
$var wire 1 ] ww_cnt_out [1] $end
$var wire 1 ^ ww_cnt_out [0] $end
$var wire 1 _ ww_pwm_out $end
$var wire 1 ` \~QUARTUS_CREATED_ADC1~_CHSEL_bus\ [4] $end
$var wire 1 a \~QUARTUS_CREATED_ADC1~_CHSEL_bus\ [3] $end
$var wire 1 b \~QUARTUS_CREATED_ADC1~_CHSEL_bus\ [2] $end
$var wire 1 c \~QUARTUS_CREATED_ADC1~_CHSEL_bus\ [1] $end
$var wire 1 d \~QUARTUS_CREATED_ADC1~_CHSEL_bus\ [0] $end
$var wire 1 e \~QUARTUS_CREATED_ADC2~_CHSEL_bus\ [4] $end
$var wire 1 f \~QUARTUS_CREATED_ADC2~_CHSEL_bus\ [3] $end
$var wire 1 g \~QUARTUS_CREATED_ADC2~_CHSEL_bus\ [2] $end
$var wire 1 h \~QUARTUS_CREATED_ADC2~_CHSEL_bus\ [1] $end
$var wire 1 i \~QUARTUS_CREATED_ADC2~_CHSEL_bus\ [0] $end
$var wire 1 j \rst~inputclkctrl_INCLK_bus\ [3] $end
$var wire 1 k \rst~inputclkctrl_INCLK_bus\ [2] $end
$var wire 1 l \rst~inputclkctrl_INCLK_bus\ [1] $end
$var wire 1 m \rst~inputclkctrl_INCLK_bus\ [0] $end
$var wire 1 n \clk~inputclkctrl_INCLK_bus\ [3] $end
$var wire 1 o \clk~inputclkctrl_INCLK_bus\ [2] $end
$var wire 1 p \clk~inputclkctrl_INCLK_bus\ [1] $end
$var wire 1 q \clk~inputclkctrl_INCLK_bus\ [0] $end
$var wire 1 r \~QUARTUS_CREATED_GND~I_combout\ $end
$var wire 1 s \~QUARTUS_CREATED_UNVM~~busy\ $end
$var wire 1 t \~QUARTUS_CREATED_ADC1~~eoc\ $end
$var wire 1 u \~QUARTUS_CREATED_ADC2~~eoc\ $end
$var wire 1 v \cnt_out[0]~output_o\ $end
$var wire 1 w \cnt_out[1]~output_o\ $end
$var wire 1 x \cnt_out[2]~output_o\ $end
$var wire 1 y \cnt_out[3]~output_o\ $end
$var wire 1 z \cnt_out[4]~output_o\ $end
$var wire 1 { \cnt_out[5]~output_o\ $end
$var wire 1 | \cnt_out[6]~output_o\ $end
$var wire 1 } \cnt_out[7]~output_o\ $end
$var wire 1 ~ \pwm_out~output_o\ $end
$var wire 1 !! \clk~input_o\ $end
$var wire 1 "! \clk~inputclkctrl_outclk\ $end
$var wire 1 #! \cnt_reg[0]~8_combout\ $end
$var wire 1 $! \period_i[1]~input_o\ $end
$var wire 1 %! \period_i[0]~input_o\ $end
$var wire 1 &! \cnt_reg[0]~9\ $end
$var wire 1 '! \cnt_reg[1]~11_combout\ $end
$var wire 1 (! \offt_i[3]~input_o\ $end
$var wire 1 )! \offt_i[2]~input_o\ $end
$var wire 1 *! \cnt_reg[1]~12\ $end
$var wire 1 +! \cnt_reg[2]~13_combout\ $end
$var wire 1 ,! \cnt_reg[2]~14\ $end
$var wire 1 -! \cnt_reg[3]~15_combout\ $end
$var wire 1 .! \Equal0~1_combout\ $end
$var wire 1 /! \offt_i[7]~input_o\ $end
$var wire 1 0! \offt_i[6]~input_o\ $end
$var wire 1 1! \cnt_reg[3]~16\ $end
$var wire 1 2! \cnt_reg[4]~17_combout\ $end
$var wire 1 3! \cnt_reg[4]~18\ $end
$var wire 1 4! \cnt_reg[5]~19_combout\ $end
$var wire 1 5! \cnt_reg[5]~20\ $end
$var wire 1 6! \cnt_reg[6]~21_combout\ $end
$var wire 1 7! \cnt_reg[6]~22\ $end
$var wire 1 8! \cnt_reg[7]~23_combout\ $end
$var wire 1 9! \Equal0~3_combout\ $end
$var wire 1 :! \offt_i[5]~input_o\ $end
$var wire 1 ;! \offt_i[4]~input_o\ $end
$var wire 1 <! \Equal0~2_combout\ $end
$var wire 1 =! \offt_i[0]~input_o\ $end
$var wire 1 >! \offt_i[1]~input_o\ $end
$var wire 1 ?! \Equal0~0_combout\ $end
$var wire 1 @! \Equal0~4_combout\ $end
$var wire 1 A! \X1~0_combout\ $end
$var wire 1 B! \rst~input_o\ $end
$var wire 1 C! \rst~inputclkctrl_outclk\ $end
$var wire 1 D! \X1~q\ $end
$var wire 1 E! \X2~0_combout\ $end
$var wire 1 F! \X2~1_combout\ $end
$var wire 1 G! \X2~q\ $end
$var wire 1 H! \cnt_reg[0]~10_combout\ $end
$var wire 1 I! \X0~0_combout\ $end
$var wire 1 J! \period_i[3]~input_o\ $end
$var wire 1 K! \period_i[2]~input_o\ $end
$var wire 1 L! \X0~1_combout\ $end
$var wire 1 M! \period_i[5]~input_o\ $end
$var wire 1 N! \period_i[4]~input_o\ $end
$var wire 1 O! \X0~2_combout\ $end
$var wire 1 P! \period_i[7]~input_o\ $end
$var wire 1 Q! \period_i[6]~input_o\ $end
$var wire 1 R! \X0~3_combout\ $end
$var wire 1 S! \X0~4_combout\ $end
$var wire 1 T! \X0~5_combout\ $end
$var wire 1 U! \X0~q\ $end
$var wire 1 V! \pwm_reg~0_combout\ $end
$var wire 1 W! \pwm_reg~1_combout\ $end
$var wire 1 X! \pwm_reg~q\ $end
$var wire 1 Y! cnt_reg [7] $end
$var wire 1 Z! cnt_reg [6] $end
$var wire 1 [! cnt_reg [5] $end
$var wire 1 \! cnt_reg [4] $end
$var wire 1 ]! cnt_reg [3] $end
$var wire 1 ^! cnt_reg [2] $end
$var wire 1 _! cnt_reg [1] $end
$var wire 1 `! cnt_reg [0] $end
$var wire 1 a! \ALT_INV_X0~q\ $end
$upscope $end
$upscope $end
$enddefinitions $end
#0
$dumpvars
0!
0:
0;
0<
1=
x>
1?
1@
1A
1B
1C
1D
0E
0F
0_
0r
zs
zt
zu
0v
0w
0x
0y
0z
0{
0|
0}
0~
0!!
0"!
1#!
0$!
0%!
0&!
0'!
1(!
0)!
1*!
0+!
0,!
0-!
0.!
0/!
00!
11!
02!
03!
04!
15!
06!
07!
08!
19!
0:!
0;!
1<!
0=!
1>!
0?!
0@!
1A!
0B!
0C!
0D!
0E!
0F!
0G!
0H!
1I!
0J!
0K!
1L!
0M!
1N!
0O!
0P!
1Q!
0R!
0S!
1T!
0U!
0V!
0W!
0X!
1a!
0*
0+
0,
0-
1.
0/
10
01
02
13
04
15
06
07
08
09
0"
0#
0$
0%
0&
0'
0(
0)
0G
0H
0I
0J
1K
0L
1M
0N
0O
1P
0Q
1R
0S
0T
0U
0V
0W
0X
0Y
0Z
0[
0\
0]
0^
0Y!
0Z!
0[!
0\!
0]!
0^!
0_!
0`!
1n
1o
1p
0q
1j
1k
1l
0m
0`
0a
0b
0c
0d
0e
0f
0g
0h
0i
$end
#500
1!
1E
1!!
1q
1"!
#1000
0!
0E
0!!
0q
0"!
#1500
1!
1E
1!!
1q
1"!
#2000
0!
0E
0!!
0q
0"!
#2500
1!
1E
1!!
1q
1"!
#3000
0!
0E
0!!
0q
0"!
#3500
1!
1E
1!!
1q
1"!
#4000
0!
0E
0!!
0q
0"!
#4500
1!
1E
1!!
1q
1"!
#5000
0!
0E
0!!
0q
0"!
#5500
1!
1E
1!!
1q
1"!
#6000
0!
0E
0!!
0q
0"!
#6500
1!
1E
1!!
1q
1"!
#7000
0!
0E
0!!
0q
0"!
#7500
1!
1E
1!!
1q
1"!
#8000
0!
0E
0!!
0q
0"!
#8500
1!
1E
1!!
1q
1"!
#9000
0!
0E
0!!
0q
0"!
#9500
1!
1E
1!!
1q
1"!
#10000
0!
0E
0!!
0q
0"!
#10500
1!
1E
1!!
1q
1"!
#11000
0!
0E
0!!
0q
0"!
#11500
1!
1E
1!!
1q
1"!
#12000
0!
0E
0!!
0q
0"!
#12500
1!
1E
1!!
1q
1"!
#13000
0!
0E
0!!
0q
0"!
#13500
1!
1E
1!!
1q
1"!
#14000
0!
0E
0!!
0q
0"!
#14500
1!
1E
1!!
1q
1"!
#15000
0!
0E
0!!
0q
0"!
#15500
1!
1E
1!!
1q
1"!
#16000
0!
0E
0!!
0q
0"!
#16500
1!
1E
1!!
1q
1"!
#17000
0!
0E
0!!
0q
0"!
#17500
1!
1E
1!!
1q
1"!
#18000
0!
0E
0!!
0q
0"!
#18500
1!
1E
1!!
1q
1"!
#19000
0!
0E
0!!
0q
0"!
#19500
1!
1E
1!!
1q
1"!
#20000
0!
0E
0!!
0q
0"!
#20500
1!
1E
1!!
1q
1"!
#21000
0!
0E
0!!
0q
0"!
#21500
1!
1E
1!!
1q
1"!
#22000
0!
0E
0!!
0q
0"!
#22500
1!
1E
1!!
1q
1"!
#23000
0!
0E
0!!
0q
0"!
#23500
1!
1E
1!!
1q
1"!
#24000
0!
0E
0!!
0q
0"!
#24500
1!
1E
1!!
1q
1"!
#25000
0!
0E
0!!
0q
0"!
#25500
1!
1E
1!!
1q
1"!
#26000
0!
0E
0!!
0q
0"!
#26500
1!
1E
1!!
1q
1"!
#27000
0!
0E
0!!
0q
0"!
#27500
1!
1E
1!!
1q
1"!
#28000
0!
0E
0!!
0q
0"!
#28500
1!
1E
1!!
1q
1"!
#29000
0!
0E
0!!
0q
0"!
#29500
1!
1E
1!!
1q
1"!
#30000
0!
0E
0!!
0q
0"!
#30500
1!
1E
1!!
1q
1"!
#31000
0!
0E
0!!
0q
0"!
#31500
1!
1E
1!!
1q
1"!
#32000
0!
0E
0!!
0q
0"!
#32500
1!
1E
1!!
1q
1"!
#33000
0!
0E
0!!
0q
0"!
#33500
1!
1E
1!!
1q
1"!
#34000
0!
0E
0!!
0q
0"!
#34500
1!
1E
1!!
1q
1"!
#35000
0!
0E
0!!
0q
0"!
#35500
1!
1E
1!!
1q
1"!
#36000
0!
0E
0!!
0q
0"!
#36500
1!
1E
1!!
1q
1"!
#37000
0!
0E
0!!
0q
0"!
#37500
1!
1E
1!!
1q
1"!
#38000
0!
0E
0!!
0q
0"!
#38500
1!
1E
1!!
1q
1"!
#39000
0!
0E
0!!
0q
0"!
#39500
1!
1E
1!!
1q
1"!
#40000
0!
1;
0E
1F
1B!
0!!
1m
0q
1H!
0"!
1C!
#40500
1!
1E
1!!
1q
1"!
1D!
1U!
0a!
#41000
0!
0E
0!!
0q
0"!
#41500
1!
1E
1!!
1q
1"!
1`!
1v
0#!
1&!
0I!
1^
1'!
1)
#42000
0!
0E
0!!
0q
0"!
#42500
1!
1E
1!!
1q
1"!
1_!
0`!
0v
1w
1#!
0&!
0'!
0*!
1?!
0^
1]
1+!
1'!
1*!
0)
1(
0+!
#43000
0!
0E
0!!
0q
0"!
#43500
1!
1E
1!!
1q
1"!
1`!
1v
0#!
1&!
0?!
1^
0'!
0*!
1)
1+!
#44000
0!
0E
0!!
0q
0"!
#44500
1!
1E
1!!
1q
1"!
1^!
0_!
0`!
0v
0w
1x
1#!
0&!
1'!
1*!
1I!
0+!
1,!
0L!
0^
0]
1\
1-!
1+!
0,!
0'!
0)
0(
1'
0-!
#45000
0!
0E
0!!
0q
0"!
#45500
1!
1E
1!!
1q
1"!
1`!
1v
0#!
1&!
0I!
1^
1'!
1)
#46000
0!
0E
0!!
0q
0"!
#46500
1!
1E
1!!
1q
1"!
1_!
0`!
0v
1w
1#!
0&!
0'!
0*!
1?!
0^
1]
0+!
1,!
1'!
1*!
0)
1(
1+!
0,!
1-!
0-!
#47000
0!
0E
0!!
0q
0"!
#47500
1!
1E
1!!
1q
1"!
1`!
1v
0#!
1&!
0?!
1^
0'!
0*!
1)
0+!
1,!
1-!
#48000
0!
0E
0!!
0q
0"!
#48500
1!
1E
1!!
1q
1"!
0^!
1]!
0_!
0`!
0v
0w
1y
0x
1#!
0&!
1'!
1*!
1I!
0-!
01!
1+!
0,!
1.!
0^
0]
1[
0\
1-!
11!
12!
0+!
0'!
0)
0(
0'
1&
02!
#49000
0!
0E
0!!
0q
0"!
#49500
1!
1E
1!!
1q
1"!
1`!
1v
0#!
1&!
0I!
1^
1'!
1)
#50000
0!
0E
0!!
0q
0"!
#50500
1!
1E
1!!
1q
1"!
1_!
0`!
0v
1w
1#!
0&!
0'!
0*!
1?!
0^
1]
1@!
1+!
1'!
1*!
0)
1(
0+!
0A!
1E!
1F!
#51000
0!
0E
0!!
0q
0"!
#51500
1!
1E
1!!
1q
1"!
0D!
1G!
1`!
1v
0#!
1&!
0?!
0E!
1V!
1^
1W!
0@!
0'!
0*!
1)
1+!
#52000
0!
0E
0!!
0q
0"!
#52500
1!
1E
1!!
1q
1"!
1^!
0_!
0`!
1X!
1~
0v
0w
1x
1#!
0&!
1'!
1*!
1I!
0+!
1,!
0.!
1_
0^
0]
1\
0-!
01!
1+!
0,!
0'!
1:
0)
0(
1'
1-!
11!
12!
02!
#53000
0!
0E
0!!
0q
0"!
#53500
1!
1E
1!!
1q
1"!
1`!
1v
0#!
1&!
0I!
1^
1'!
1)
#54000
0!
0E
0!!
0q
0"!
#54500
1!
1E
1!!
1q
1"!
1_!
0`!
0v
1w
1#!
0&!
0'!
0*!
1?!
0^
1]
0+!
1,!
1'!
1*!
0)
1(
1+!
0,!
0-!
01!
12!
1-!
11!
02!
#55000
0!
0E
0!!
0q
0"!
#55500
1!
1E
1!!
1q
1"!
1`!
1v
0#!
1&!
0?!
1^
0'!
0*!
1)
0+!
1,!
0-!
01!
12!
#56000
0!
0E
0!!
0q
0"!
#56500
1!
1E
1!!
1q
1"!
0^!
0]!
1\!
0_!
0`!
0v
0w
1z
0y
0x
1#!
0&!
1'!
1*!
1I!
02!
13!
0<!
1O!
1-!
11!
1+!
0,!
1L!
0^
0]
1Z
0[
0\
0-!
12!
03!
14!
0+!
0'!
0)
0(
0'
0&
1%
04!
#57000
0!
0E
0!!
0q
0"!
#57500
1!
1E
1!!
1q
1"!
1`!
1v
0#!
1&!
0I!
1^
1'!
1)
#58000
0!
0E
0!!
0q
0"!
#58500
1!
1E
1!!
1q
1"!
1_!
0`!
0v
1w
1#!
0&!
0'!
0*!
1?!
0^
1]
1+!
1'!
1*!
0)
1(
0+!
#59000
0!
0E
0!!
0q
0"!
#59500
1!
1E
1!!
1q
1"!
1`!
1v
0#!
1&!
0?!
1^
0'!
0*!
1)
1+!
#60000
0!
0E
0!!
0q
0"!
#60500
1!
1E
1!!
1q
1"!
1^!
0_!
0`!
0v
0w
1x
1#!
0&!
1'!
1*!
1I!
0+!
1,!
0L!
0^
0]
1\
1-!
1+!
0,!
0'!
0)
0(
1'
0-!
#61000
0!
0E
0!!
0q
0"!
#61500
1!
1E
1!!
1q
1"!
1`!
1v
0#!
1&!
0I!
1^
1'!
1)
#62000
0!
0E
0!!
0q
0"!
#62500
1!
1E
1!!
1q
1"!
1_!
0`!
0v
1w
1#!
0&!
0'!
0*!
1?!
0^
1]
0+!
1,!
1'!
1*!
0)
1(
1+!
0,!
1-!
0-!
#63000
0!
0E
0!!
0q
0"!
#63500
1!
1E
1!!
1q
1"!
1`!
1v
0#!
1&!
0?!
1^
0'!
0*!
1)
0+!
1,!
1-!
#64000
0!
0E
0!!
0q
0"!
#64500
1!
1E
1!!
1q
1"!
0^!
1]!
0_!
0`!
0v
0w
1y
0x
1#!
0&!
1'!
1*!
1I!
0-!
01!
1+!
0,!
1.!
0^
0]
1[
0\
1-!
11!
02!
13!
0+!
0'!
0)
0(
0'
1&
14!
12!
03!
04!
#65000
0!
0E
0!!
0q
0"!
#65500
1!
1E
1!!
1q
1"!
1`!
1v
0#!
1&!
0I!
1^
1'!
1)
#66000
0!
0E
0!!
0q
0"!
#66500
1!
1E
1!!
1q
1"!
1_!
0`!
0v
1w
1#!
0&!
0'!
0*!
1?!
0^
1]
1+!
1'!
1*!
0)
1(
0+!
#67000
0!
0E
0!!
0q
0"!
#67500
1!
1E
1!!
1q
1"!
1`!
1v
0#!
1&!
0?!
1^
0'!
0*!
1)
1+!
#68000
0!
0E
0!!
0q
0"!
#68500
1!
1E
1!!
1q
1"!
1^!
0_!
0`!
0v
0w
1x
1#!
0&!
1'!
1*!
1I!
0+!
1,!
0.!
0^
0]
1\
0-!
01!
1+!
0,!
0'!
0)
0(
1'
1-!
11!
02!
13!
14!
12!
03!
04!
#69000
0!
0E
0!!
0q
0"!
#69500
1!
1E
1!!
1q
1"!
1`!
1v
0#!
1&!
0I!
1^
1'!
1)
#70000
0!
0E
0!!
0q
0"!
#70500
1!
1E
1!!
1q
1"!
1_!
0`!
0v
1w
1#!
0&!
0'!
0*!
1?!
0^
1]
0+!
1,!
1'!
1*!
0)
1(
1+!
0,!
0-!
01!
02!
13!
1-!
11!
12!
03!
14!
04!
#71000
0!
0E
0!!
0q
0"!
#71500
1!
1E
1!!
1q
1"!
1`!
1v
0#!
1&!
0?!
1^
0'!
0*!
1)
0+!
1,!
0-!
01!
02!
13!
14!
#72000
0!
0E
0!!
0q
0"!
#72500
1!
1E
1!!
1q
1"!
0^!
0]!
0\!
1[!
0_!
0`!
0v
0w
1{
0z
0y
0x
1#!
0&!
1'!
1*!
1I!
04!
05!
12!
03!
0O!
1-!
11!
1+!
0,!
1L!
0^
0]
1Y
0Z
0[
0\
0-!
02!
14!
15!
16!
0+!
0'!
0)
0(
0'
0&
0%
1$
06!
#73000
0!
0E
0!!
0q
0"!
#73500
1!
1E
1!!
1q
1"!
1`!
1v
0#!
1&!
0I!
1^
1'!
1)
#74000
0!
0E
0!!
0q
0"!
#74500
1!
1E
1!!
1q
1"!
1_!
0`!
0v
1w
1#!
0&!
0'!
0*!
1?!
0^
1]
1+!
1'!
1*!
0)
1(
0+!
#75000
0!
0E
0!!
0q
0"!
#75500
1!
1E
1!!
1q
1"!
1`!
1v
0#!
1&!
0?!
1^
0'!
0*!
1)
1+!
#76000
0!
0E
0!!
0q
0"!
#76500
1!
1E
1!!
1q
1"!
1^!
0_!
0`!
0v
0w
1x
1#!
0&!
1'!
1*!
1I!
0+!
1,!
0L!
0^
0]
1\
1-!
1+!
0,!
0'!
0)
0(
1'
0-!
#77000
0!
0E
0!!
0q
0"!
#77500
1!
1E
1!!
1q
1"!
1`!
1v
0#!
1&!
0I!
1^
1'!
1)
#78000
0!
0E
0!!
0q
0"!
#78500
1!
1E
1!!
1q
1"!
1_!
0`!
0v
1w
1#!
0&!
0'!
0*!
1?!
0^
1]
0+!
1,!
1'!
1*!
0)
1(
1+!
0,!
1-!
0-!
#79000
0!
0E
0!!
0q
0"!
#79500
1!
1E
1!!
1q
1"!
1`!
1v
0#!
1&!
0?!
1^
0'!
0*!
1)
0+!
1,!
1-!
#80000
0!
0E
0!!
0q
0"!
#80500
1!
1E
1!!
1q
1"!
0^!
1]!
0_!
0`!
0v
0w
1y
0x
1#!
0&!
1'!
1*!
1I!
0-!
01!
1+!
0,!
1.!
0^
0]
1[
0\
1-!
11!
12!
0+!
0'!
0)
0(
0'
1&
02!
#81000
0!
0E
0!!
0q
0"!
#81500
1!
1E
1!!
1q
1"!
1`!
1v
0#!
1&!
0I!
1^
1'!
1)
#82000
0!
0E
0!!
0q
0"!
#82500
1!
1E
1!!
1q
1"!
1_!
0`!
0v
1w
1#!
0&!
0'!
0*!
1?!
0^
1]
1+!
1'!
1*!
0)
1(
0+!
#83000
0!
0E
0!!
0q
0"!
#83500
1!
1E
1!!
1q
1"!
1`!
1v
0#!
1&!
0?!
1^
0'!
0*!
1)
1+!
#84000
0!
0E
0!!
0q
0"!
#84500
1!
1E
1!!
1q
1"!
1^!
0_!
0`!
0v
0w
1x
1#!
0&!
1'!
1*!
1I!
0+!
1,!
0.!
0^
0]
1\
0-!
01!
1+!
0,!
0'!
0)
0(
1'
1-!
11!
12!
02!
#85000
0!
0E
0!!
0q
0"!
#85500
1!
1E
1!!
1q
1"!
1`!
1v
0#!
1&!
0I!
1^
1'!
1)
#86000
0!
0E
0!!
0q
0"!
#86500
1!
1E
1!!
1q
1"!
1_!
0`!
0v
1w
1#!
0&!
0'!
0*!
1?!
0^
1]
0+!
1,!
1'!
1*!
0)
1(
1+!
0,!
0-!
01!
12!
1-!
11!
02!
#87000
0!
0E
0!!
0q
0"!
#87500
1!
1E
1!!
1q
1"!
1`!
1v
0#!
1&!
0?!
1^
0'!
0*!
1)
0+!
1,!
0-!
01!
12!
#88000
0!
0E
0!!
0q
0"!
#88500
1!
1E
1!!
1q
1"!
0^!
0]!
1\!
0_!
0`!
0v
0w
1z
0y
0x
1#!
0&!
1'!
1*!
1I!
02!
13!
1-!
11!
1+!
0,!
1L!
0^
0]
1Z
0[
0\
0-!
12!
03!
04!
05!
0+!
0'!
0)
0(
0'
0&
1%
16!
14!
15!
06!
#89000
0!
0E
0!!
0q
0"!
#89500
1!
1E
1!!
1q
1"!
1`!
1v
0#!
1&!
0I!
1^
1'!
1)
#90000
0!
0E
0!!
0q
0"!
#90500
1!
1E
1!!
1q
1"!
1_!
0`!
0v
1w
1#!
0&!
0'!
0*!
1?!
0^
1]
1+!
1'!
1*!
0)
1(
0+!
#91000
0!
0E
0!!
0q
0"!
#91500
1!
1E
1!!
1q
1"!
1`!
1v
0#!
1&!
0?!
1^
0'!
0*!
1)
1+!
#92000
0!
0E
0!!
0q
0"!
#92500
1!
1E
1!!
1q
1"!
1^!
0_!
0`!
0v
0w
1x
1#!
0&!
1'!
1*!
1I!
0+!
1,!
0L!
0^
0]
1\
1-!
1+!
0,!
0'!
0)
0(
1'
0-!
#93000
0!
0E
0!!
0q
0"!
#93500
1!
1E
1!!
1q
1"!
1`!
1v
0#!
1&!
0I!
1^
1'!
1)
#94000
0!
0E
0!!
0q
0"!
#94500
1!
1E
1!!
1q
1"!
1_!
0`!
0v
1w
1#!
0&!
0'!
0*!
1?!
0^
1]
0+!
1,!
1'!
1*!
0)
1(
1+!
0,!
1-!
0-!
#95000
0!
0E
0!!
0q
0"!
#95500
1!
1E
1!!
1q
1"!
1`!
1v
0#!
1&!
0?!
1^
0'!
0*!
1)
0+!
1,!
1-!
#96000
0!
0E
0!!
0q
0"!
#96500
1!
1E
1!!
1q
1"!
0^!
1]!
0_!
0`!
0v
0w
1y
0x
1#!
0&!
1'!
1*!
1I!
0-!
01!
1+!
0,!
1.!
0^
0]
1[
0\
1-!
11!
02!
13!
0+!
0'!
0)
0(
0'
1&
04!
05!
12!
03!
14!
15!
16!
06!
#97000
0!
0E
0!!
0q
0"!
#97500
1!
1E
1!!
1q
1"!
1`!
1v
0#!
1&!
0I!
1^
1'!
1)
#98000
0!
0E
0!!
0q
0"!
#98500
1!
1E
1!!
1q
1"!
1_!
0`!
0v
1w
1#!
0&!
0'!
0*!
1?!
0^
1]
1+!
1'!
1*!
0)
1(
0+!
#99000
0!
0E
0!!
0q
0"!
#99500
1!
1E
1!!
1q
1"!
1`!
1v
0#!
1&!
0?!
1^
0'!
0*!
1)
1+!
#100000
0!
0E
0!!
0q
0"!
#100500
1!
1E
1!!
1q
1"!
1^!
0_!
0`!
0v
0w
1x
1#!
0&!
1'!
1*!
1I!
0+!
1,!
0.!
0^
0]
1\
0-!
01!
1+!
0,!
0'!
0)
0(
1'
1-!
11!
02!
13!
04!
05!
12!
03!
14!
15!
16!
06!
#101000
0!
0E
0!!
0q
0"!
#101500
1!
1E
1!!
1q
1"!
1`!
1v
0#!
1&!
0I!
1^
1'!
1)
#102000
0!
0E
0!!
0q
0"!
#102500
1!
1E
1!!
1q
1"!
1_!
0`!
0v
1w
1#!
0&!
0'!
0*!
1?!
0^
1]
0+!
1,!
1'!
1*!
0)
1(
1+!
0,!
0-!
01!
02!
13!
1-!
11!
12!
03!
04!
05!
16!
14!
15!
06!
#103000
0!
0E
0!!
0q
0"!
#103500
1!
1E
1!!
1q
1"!
1`!
1v
0#!
1&!
0?!
1^
0'!
0*!
1)
0+!
1,!
0-!
01!
02!
13!
04!
05!
16!
#104000
0!
0E
0!!
0q
0"!
#104500
1!
1E
1!!
1q
1"!
0^!
0]!
0\!
0[!
1Z!
0_!
0`!
0v
0w
1|
0{
0z
0y
0x
1#!
0&!
1'!
1*!
1I!
06!
17!
09!
1R!
14!
15!
12!
03!
1<!
1-!
11!
1+!
0,!
1L!
0^
0]
1X
0Y
0Z
0[
0\
0-!
02!
04!
16!
07!
18!
0+!
0'!
0)
0(
0'
0&
0%
0$
1#
08!
#105000
0!
0E
0!!
0q
0"!
#105500
1!
1E
1!!
1q
1"!
1`!
1v
0#!
1&!
0I!
1^
1'!
1)
#106000
0!
0E
0!!
0q
0"!
#106500
1!
1E
1!!
1q
1"!
1_!
0`!
0v
1w
1#!
0&!
0'!
0*!
1?!
0^
1]
1+!
1'!
1*!
0)
1(
0+!
#107000
0!
0E
0!!
0q
0"!
#107500
1!
1E
1!!
1q
1"!
1`!
1v
0#!
1&!
0?!
1^
0'!
0*!
1)
1+!
#108000
0!
0E
0!!
0q
0"!
#108500
1!
1E
1!!
1q
1"!
1^!
0_!
0`!
0v
0w
1x
1#!
0&!
1'!
1*!
1I!
0+!
1,!
0L!
0^
0]
1\
1-!
1+!
0,!
0'!
0)
0(
1'
0-!
#109000
0!
0E
0!!
0q
0"!
#109500
1!
1E
1!!
1q
1"!
1`!
1v
0#!
1&!
0I!
1^
1'!
1)
#110000
0!
0E
0!!
0q
0"!
#110500
1!
1E
1!!
1q
1"!
1_!
0`!
0v
1w
1#!
0&!
0'!
0*!
1?!
0^
1]
0+!
1,!
1'!
1*!
0)
1(
1+!
0,!
1-!
0-!
#111000
0!
0E
0!!
0q
0"!
#111500
1!
1E
1!!
1q
1"!
1`!
1v
0#!
1&!
0?!
1^
0'!
0*!
1)
0+!
1,!
1-!
#112000
0!
0E
0!!
0q
0"!
#112500
1!
1E
1!!
1q
1"!
0^!
1]!
0_!
0`!
0v
0w
1y
0x
1#!
0&!
1'!
1*!
1I!
0-!
01!
1+!
0,!
1.!
0^
0]
1[
0\
1-!
11!
12!
0+!
0'!
0)
0(
0'
1&
02!
#113000
0!
0E
0!!
0q
0"!
#113500
1!
1E
1!!
1q
1"!
1`!
1v
0#!
1&!
0I!
1^
1'!
1)
#114000
0!
0E
0!!
0q
0"!
#114500
1!
1E
1!!
1q
1"!
1_!
0`!
0v
1w
1#!
0&!
0'!
0*!
1?!
0^
1]
1+!
1'!
1*!
0)
1(
0+!
#115000
0!
0E
0!!
0q
0"!
#115500
1!
1E
1!!
1q
1"!
1`!
1v
0#!
1&!
0?!
1^
0'!
0*!
1)
1+!
#116000
0!
0E
0!!
0q
0"!
#116500
1!
1E
1!!
1q
1"!
1^!
0_!
0`!
0v
0w
1x
1#!
0&!
1'!
1*!
1I!
0+!
1,!
0.!
0^
0]
1\
0-!
01!
1+!
0,!
0'!
0)
0(
1'
1-!
11!
12!
02!
#117000
0!
0E
0!!
0q
0"!
#117500
1!
1E
1!!
1q
1"!
1`!
1v
0#!
1&!
0I!
1^
1'!
1)
#118000
0!
0E
0!!
0q
0"!
#118500
1!
1E
1!!
1q
1"!
1_!
0`!
0v
1w
1#!
0&!
0'!
0*!
1?!
0^
1]
0+!
1,!
1'!
1*!
0)
1(
1+!
0,!
0-!
01!
12!
1-!
11!
02!
#119000
0!
0E
0!!
0q
0"!
#119500
1!
1E
1!!
1q
1"!
1`!
1v
0#!
1&!
0?!
1^
0'!
0*!
1)
0+!
1,!
0-!
01!
12!
#120000
0!
0E
0!!
0q
0"!
