06-BCD/simulation/qsim/ex06_1.msim.vcd
$comment
	File created using the following command:
		vcd file ex06_1.msim.vcd -direction
$end
$date
	Fri Apr 21 15:25:08 2023
$end
$version
	ModelSim Version 10.5b
$end
$timescale
	1ps
$end

$scope module dec_bcd_adder_vlg_vec_tst $end
$var reg 1 ! A_Dec0 $end
$var reg 1 " A_Dec1 $end
$var reg 1 # A_Dec2 $end
$var reg 1 $ A_Dec3 $end
$var reg 1 % A_Digits0 $end
$var reg 1 & A_Digits1 $end
$var reg 1 ' A_Digits2 $end
$var reg 1 ( A_Digits3 $end
$var reg 1 ) B_Dec0 $end
$var reg 1 * B_Dec1 $end
$var reg 1 + B_Dec2 $end
$var reg 1 , B_Dec3 $end
$var reg 1 - B_Digits0 $end
$var reg 1 . B_Digits1 $end
$var reg 1 / B_Digits2 $end
$var reg 1 0 B_Digits3 $end
$var reg 1 1 Ci $end
$var wire 1 2 Digit $end
$var wire 1 3 Y_Dec_0 $end
$var wire 1 4 Y_Dec_1 $end
$var wire 1 5 Y_Dec_2 $end
$var wire 1 6 Y_Dec_3 $end
$var wire 1 7 Y_Digits0 $end
$var wire 1 8 Y_Digits1 $end
$var wire 1 9 Y_Digits2 $end
$var wire 1 : Y_Digits3 $end

$scope module i1 $end
$var wire 1 ; gnd $end
$var wire 1 < vcc $end
$var wire 1 = unknown $end
$var tri1 1 > devclrn $end
$var tri1 1 ? devpor $end
$var tri1 1 @ devoe $end
$var wire 1 A ~QUARTUS_CREATED_GND~I_combout $end
$var wire 1 B ~QUARTUS_CREATED_UNVM~~busy $end
$var wire 1 C ~QUARTUS_CREATED_ADC1~~eoc $end
$var wire 1 D ~QUARTUS_CREATED_ADC2~~eoc $end
$var wire 1 E Digit~output_o $end
$var wire 1 F Y_Digits0~output_o $end
$var wire 1 G Y_Digits1~output_o $end
$var wire 1 H Y_Digits2~output_o $end
$var wire 1 I Y_Digits3~output_o $end
$var wire 1 J Y_Dec_0~output_o $end
$var wire 1 K Y_Dec_1~output_o $end
$var wire 1 L Y_Dec_2~output_o $end
$var wire 1 M Y_Dec_3~output_o $end
$var wire 1 N B_Dec3~input_o $end
$var wire 1 O B_Dec1~input_o $end
$var wire 1 P B_Dec0~input_o $end
$var wire 1 Q B_Digits2~input_o $end
$var wire 1 R A_Digits2~input_o $end
$var wire 1 S inst|inst|inst2|inst6|inst2~0_combout $end
$var wire 1 T A_Digits1~input_o $end
$var wire 1 U B_Digits0~input_o $end
$var wire 1 V Ci~input_o $end
$var wire 1 W A_Digits0~input_o $end
$var wire 1 X inst|inst|inst|inst~0_combout $end
$var wire 1 Y B_Digits1~input_o $end
$var wire 1 Z inst|inst4~0_combout $end
$var wire 1 [ inst|inst|inst1|inst~0_combout $end
$var wire 1 \ inst|inst|inst2|inst~0_combout $end
$var wire 1 ] B_Digits3~input_o $end
$var wire 1 ^ A_Digits3~input_o $end
$var wire 1 _ inst|inst4~1_combout $end
$var wire 1 ` A_Dec0~input_o $end
$var wire 1 a inst3|inst|inst|inst~0_combout $end
$var wire 1 b A_Dec1~input_o $end
$var wire 1 c inst3|inst|inst1|inst~0_combout $end
$var wire 1 d B_Dec2~input_o $end
$var wire 1 e A_Dec2~input_o $end
$var wire 1 f inst3|inst|inst2|inst~0_combout $end
$var wire 1 g A_Dec3~input_o $end
$var wire 1 h inst3|inst|inst2|inst6|inst2~0_combout $end
$var wire 1 i inst3|inst4~0_combout $end
$var wire 1 j inst3|inst4~1_combout $end
$var wire 1 k inst|inst|inst|inst6|inst2~0_combout $end
$var wire 1 l inst|inst1|inst1|inst5|inst2~combout $end
$var wire 1 m inst|inst|inst1|inst6|inst2~combout $end
$var wire 1 n inst|inst1|inst2|inst6|inst2~0_combout $end
$var wire 1 o inst|inst1|inst3|inst6|inst2~0_combout $end
$var wire 1 p inst3|inst|inst|inst6|inst2~combout $end
$var wire 1 q inst3|inst1|inst1|inst5|inst2~combout $end
$var wire 1 r inst3|inst|inst1|inst6|inst2~combout $end
$var wire 1 s inst3|inst1|inst2|inst6|inst2~0_combout $end
$var wire 1 t inst3|inst1|inst3|inst6|inst2~0_combout $end
$upscope $end
$upscope $end
$enddefinitions $end
#0
$dumpvars
0!
0"
0#
0$
0%
0&
0'
0(
0)
0*
0+
0,
0-
0.
0/
00
01
02
03
04
05
06
07
08
09
0:
0;
1<
x=
1>
1?
1@
0A
zB
zC
zD
0E
0F
0G
0H
0I
0J
0K
0L
0M
0N
0O
0P
0Q
0R
0S
0T
0U
0V
0W
0X
0Y
0Z
0[
0\
0]
0^
0_
0`
0a
0b
0c
0d
0e
0f
0g
0h
0i
0j
0k
0l
0m
0n
0o
0p
0q
0r
0s
0t
$end
#50000
1%
1-
1!
1)
1P
1`
1U
1W
1a
1X
1r
1i
1m
1Z
1q
1l
1G
1K
14
18
#100000
1&
1.
1"
1*
0%
0-
0!
0)
0P
0`
0U
0W
1O
1b
1Y
1T
0a
0X
1c
1[
0r
0m
0q
0l
1s
1n
1H
1L
0G
0K
04
08
15
19
#150000
1%
1-
1!
1)
1P
1`
1U
1W
1a
1X
1r
1m
1q
1l
1G
1K
14
18
#200000
1'
1/
1#
1+
0&
0.
0"
0*
0%
0-
0!
0)
0P
0`
0U
0W
0O
0b
0Y
0T
1d
1e
1Q
1R
0a
0X
0c
0[
1f
1\
0r
0i
0m
0Z
1_
0q
0l
0s
0n
1j
1E
0H
0L
0G
0K
0_
04
08
05
09
12
1s
1t
0j
1n
1o
1p
1l
1q
1K
1G
1J
1I
1H
0E
1M
1L
15
16
02
19
1:
13
18
14
0p
0n
0l
0s
0q
0K
0L
0G
0H
0J
03
09
08
05
04
#250000
1%
1-
1!
1)
1P
1`
1U
1W
1a
1X
1r
1i
1m
1Z
1q
1l
1G
1K
1_
14
18
0t
1j
0o
0I
1E
0M
06
12
0:
1p
0l
0q
0K
0G
1J
13
08
04
#300000
1&
1.
1"
1*
0%
0-
0!
0)
0P
0`
0U
0W
1O
1b
1Y
1T
0a
0X
1c
1[
0r
0m
1q
1l
1s
1n
1H
1L
1G
1K
14
18
15
19
0s
0n
0H
0L
05
09
#350000
1%
1-
1!
1)
1P
1`
1U
1W
1a
1X
1r
1m
0q
0l
0G
0K
04
08
1s
1n
1H
1L
15
19
#400000
1(
10
1$
1,
0'
0/
0#
0+
0&
0.
0"
0*
0%
0-
0!
0)
0P
0`
0U
0W
0O
0b
0Y
0T
0d
0e
0Q
0R
1N
1g
1]
1^
0a
0X
0c
0[
0f
0\
0r
0i
0m
0Z
1q
1l
0s
0n
1t
1o
1I
1M
0H
0L
1G
1K
14
18
05
09
16
1:
1s
0t
1n
0o
0I
1H
0M
1L
15
06
19
0:
#450000
1%
1-
1!
1)
1P
1`
1U
1W
1a
1X
1r
1i
1m
1Z
0q
0l
0G
0K
04
08
0s
1t
0n
1o
1I
0H
1M
0L
05
16
09
1:
#500000
1&
1.
1"
1*
0%
0-
0!
0)
0P
0`
0U
0W
1O
1b
1Y
1T
0a
0X
1c
1[
0r
0m
1q
1l
1s
1n
1H
1L
1G
1K
14
18
15
19
0s
0n
0H
0L
05
09
#550000
1%
1-
1!
1)
1P
1`
1U
1W
1a
1X
1r
1m
0q
0l
0G
0K
04
08
1s
1n
1H
1L
15
19
#600000
1'
1/
1#
1+
0&
0.
0"
0*
0%
0-
0!
0)
0P
0`
0U
0W
0O
0b
0Y
0T
1d
1e
1Q
1R
0a
0X
0c
0[
1f
1\
0r
0i
0m
0Z
1q
1l
0s
0n
0t
0o
0I
0M
0H
0L
1G
1K
14
18
05
09
06
0:
1s
1t
1n
1o
1I
1H
1M
1L
15
16
19
1:
#650000
1%
1-
1!
1)
1P
1`
1U
1W
1a
1X
1r
1i
1m
1Z
0q
0l
0G
0K
04
08
0s
0t
0n
0o
0I
0H
0M
0L
05
06
09
0:
#700000
1&
1.
1"
1*
0%
0-
0!
0)
0P
0`
0U
0W
1O
1b
1Y
1T
0a
0X
1c
1[
0r
0m
1q
1l
1s
1n
1H
1L
1G
1K
14
18
15
19
0s
0n
0H
0L
05
09
#750000
1%
1-
1!
1)
1P
1`
1U
1W
1a
1X
1r
1m
0q
0l
0G
0K
04
08
1s
1n
1H
1L
15
19
#800000
0(
00
0$
0,
0'
0/
0#
0+
0&
0.
0"
0*
0%
0-
0!
0)
0P
0`
0U
0W
0O
0b
0Y
0T
0d
0e
0Q
0R
0N
0g
0]
0^
0a
0X
0c
0[
0f
0\
0r
0i
0m
0Z
0_
1q
1l
0s
0n
0j
0E
0H
0L
1G
1K
14
18
05
09
02
0p
0l
0q
0K
0G
0J
03
08
04
#850000
1%
1-
1!
1)
1P
1`
1U
1W
1a
1X
1r
1i
1m
1Z
1q
1l
1G
1K
14
18
#900000
1&
1.
1"
1*
0%
0-
0!
0)
0P
0`
0U
0W
1O
1b
1Y
1T
0a
0X
1c
1[
0r
0m
0q
0l
1s
1n
1H
1L
0G
0K
04
08
15
19
#950000
1%
1-
1!
1)
1P
1`
1U
1W
1a
1X
1r
1m
1q
1l
1G
1K
14
18
