06-BCD/simulation/qsim/fullAdder.msim.vcd
$comment
	File created using the following command:
		vcd file fullAdder.msim.vcd -direction
$end
$date
	Wed Apr 19 17:45:36 2023
$end
$version
	ModelSim Version 10.5b
$end
$timescale
	1ps
$end

$scope module BCD_digit_vlg_vec_tst $end
$var reg 1 ! A0 $end
$var reg 1 " A1 $end
$var reg 1 # A2 $end
$var reg 1 $ A3 $end
$var reg 1 % B0 $end
$var reg 1 & B1 $end
$var reg 1 ' B2 $end
$var reg 1 ( B3 $end
$var reg 1 ) C $end
$var wire 1 * digit_1 $end
$var wire 1 + Y0 $end
$var wire 1 , Y1 $end
$var wire 1 - Y2 $end
$var wire 1 . Y3 $end

$scope module i1 $end
$var wire 1 / gnd $end
$var wire 1 0 vcc $end
$var wire 1 1 unknown $end
$var tri1 1 2 devclrn $end
$var tri1 1 3 devpor $end
$var tri1 1 4 devoe $end
$var wire 1 5 ~QUARTUS_CREATED_GND~I_combout $end
$var wire 1 6 ~QUARTUS_CREATED_UNVM~~busy $end
$var wire 1 7 ~QUARTUS_CREATED_ADC1~~eoc $end
$var wire 1 8 ~QUARTUS_CREATED_ADC2~~eoc $end
$var wire 1 9 Y0~output_o $end
$var wire 1 : Y1~output_o $end
$var wire 1 ; Y2~output_o $end
$var wire 1 < Y3~output_o $end
$var wire 1 = digit_1~output_o $end
$var wire 1 > C~input_o $end
$var wire 1 ? B0~input_o $end
$var wire 1 @ A0~input_o $end
$var wire 1 A inst|inst|inst1|inst2~0_combout $end
$var wire 1 B B1~input_o $end
$var wire 1 C A1~input_o $end
$var wire 1 D inst|inst|inst2~0_combout $end
$var wire 1 E B3~input_o $end
$var wire 1 F inst|inst1|inst2~0_combout $end
$var wire 1 G B2~input_o $end
$var wire 1 H A2~input_o $end
$var wire 1 I inst|inst2|inst2~0_combout $end
$var wire 1 J A3~input_o $end
$var wire 1 K inst|inst2|inst1|inst2~0_combout $end
$var wire 1 L inst4~0_combout $end
$var wire 1 M inst4~1_combout $end
$var wire 1 N inst2|inst1|inst|inst2~combout $end
$var wire 1 O inst|inst1|inst1|inst2~combout $end
$var wire 1 P inst2|inst2|inst1|inst2~0_combout $end
$var wire 1 Q inst2|inst3|inst1|inst2~0_combout $end
$upscope $end
$upscope $end
$enddefinitions $end
#0
$dumpvars
0!
0"
0#
0$
0%
0&
0'
0(
0)
0*
0+
0,
0-
0.
0/
10
x1
12
13
14
05
z6
z7
z8
09
0:
0;
0<
0=
0>
0?
0@
0A
0B
0C
0D
0E
0F
0G
0H
0I
0J
0K
0L
0M
0N
0O
0P
0Q
$end
#50000
1!
1%
1?
1@
1D
1O
1L
1N
1:
1,
#100000
1"
1&
0!
0%
0?
0@
1B
1C
0D
1F
0O
0N
1P
1;
0:
0,
1-
#150000
1!
1%
1?
1@
1D
1O
1N
1:
1,
#200000
1#
1'
0"
0&
0!
0%
0?
0@
0B
0C
1G
1H
0D
0F
1I
0O
0L
0N
0P
1M
1=
0;
0:
0,
0-
1*
1P
1Q
0M
1N
1:
0=
1<
1;
1-
1.
0*
1,
0P
0N
0:
0;
0-
0,
#250000
1!
1%
1?
1@
1D
1O
1L
1N
1:
1,
0Q
1M
1=
0<
0.
1*
0N
0:
0,
#300000
1"
1&
0!
0%
0?
0@
1B
1C
0D
1F
0O
1N
1P
1;
1:
1,
1-
0P
0;
0-
#350000
1!
1%
1?
1@
1D
1O
0N
0:
0,
1P
1;
1-
#400000
1$
1(
0#
0'
0"
0&
0!
0%
0?
0@
0B
0C
0G
0H
1E
1J
0D
0F
0I
0O
0L
1N
0P
1Q
1<
0;
1:
1,
0-
1.
1P
0Q
0<
1;
1-
0.
#450000
1!
1%
1?
1@
1D
1O
1L
0N
0:
0,
0P
1Q
1<
0;
0-
1.
#500000
1"
1&
0!
0%
0?
0@
1B
1C
0D
1F
0O
1N
1P
1;
1:
1,
1-
0P
0;
0-
#550000
1!
1%
1?
1@
1D
1O
0N
0:
0,
1P
1;
1-
#600000
1#
1'
0"
0&
0!
0%
0?
0@
0B
0C
1G
1H
0D
0F
1I
0O
0L
1N
0P
0Q
0<
0;
1:
1,
0-
0.
1P
1Q
1<
1;
1-
1.
#650000
1!
1%
1?
1@
1D
1O
1L
0N
0:
0,
0P
0Q
0<
0;
0-
0.
#700000
1"
1&
0!
0%
0?
0@
1B
1C
0D
1F
0O
1N
1P
1;
1:
1,
1-
0P
0;
0-
#750000
1!
1%
1?
1@
1D
1O
0N
0:
0,
1P
1;
1-
#800000
0$
0(
0#
0'
0"
0&
0!
0%
0?
0@
0B
0C
0G
0H
0E
0J
0D
0F
0I
0O
0L
1N
0P
0M
0=
0;
1:
1,
0-
0*
0N
0:
0,
#850000
1!
1%
1?
1@
1D
1O
1L
1N
1:
1,
#900000
1"
1&
0!
0%
0?
0@
1B
1C
0D
1F
0O
0N
1P
1;
0:
0,
1-
#950000
1!
1%
1?
1@
1D
1O
1N
1:
1,
