06-BCD/simulation/qsim/fullAdder.msim.vcd
$comment
	File created using the following command:
		vcd file fullAdder.msim.vcd -direction
$end
$date
	Wed Apr 19 18:48:01 2023
$end
$version
	ModelSim Version 10.5b
$end
$timescale
	1ps
$end

$scope module BCD_ten_digit_vlg_vec_tst $end
$var reg 1 ! A0 $end
$var reg 1 " A1 $end
$var reg 1 # A2 $end
$var reg 1 $ A3 $end
$var reg 1 % B0 $end
$var reg 1 & B1 $end
$var reg 1 ' B2 $end
$var reg 1 ( B3 $end
$var reg 1 ) tenA0 $end
$var reg 1 * tenA1 $end
$var reg 1 + tenA2 $end
$var reg 1 , tenA3 $end
$var reg 1 - tenB0 $end
$var reg 1 . tenB1 $end
$var reg 1 / tenB2 $end
$var reg 1 0 tenB3 $end
$var wire 1 1 ten_Y0 $end
$var wire 1 2 ten_Y1 $end
$var wire 1 3 ten_Y2 $end
$var wire 1 4 ten_Y3 $end
$var wire 1 5 Y0 $end
$var wire 1 6 Y1 $end
$var wire 1 7 Y2 $end
$var wire 1 8 Y3 $end

$scope module i1 $end
$var wire 1 9 gnd $end
$var wire 1 : vcc $end
$var wire 1 ; unknown $end
$var tri1 1 < devclrn $end
$var tri1 1 = devpor $end
$var tri1 1 > devoe $end
$var wire 1 ? ~QUARTUS_CREATED_GND~I_combout $end
$var wire 1 @ ~QUARTUS_CREATED_UNVM~~busy $end
$var wire 1 A ~QUARTUS_CREATED_ADC1~~eoc $end
$var wire 1 B ~QUARTUS_CREATED_ADC2~~eoc $end
$var wire 1 C ten_Y0~output_o $end
$var wire 1 D ten_Y1~output_o $end
$var wire 1 E ten_Y2~output_o $end
$var wire 1 F ten_Y3~output_o $end
$var wire 1 G Y0~output_o $end
$var wire 1 H Y1~output_o $end
$var wire 1 I Y2~output_o $end
$var wire 1 J Y3~output_o $end
$var wire 1 K tenB0~input_o $end
$var wire 1 L A1~input_o $end
$var wire 1 M B1~input_o $end
$var wire 1 N B0~input_o $end
$var wire 1 O A0~input_o $end
$var wire 1 P inst|inst|inst1|inst2~0_combout $end
$var wire 1 Q A2~input_o $end
$var wire 1 R B2~input_o $end
$var wire 1 S inst|inst|inst2|inst2~0_combout $end
$var wire 1 T A3~input_o $end
$var wire 1 U B3~input_o $end
$var wire 1 V inst|inst|inst1|inst1|inst2~0_combout $end
$var wire 1 W inst|inst4~0_combout $end
$var wire 1 X inst|inst4~1_combout $end
$var wire 1 Y tenA0~input_o $end
$var wire 1 Z inst10|inst|inst|inst1|inst2~combout $end
$var wire 1 [ tenB1~input_o $end
$var wire 1 \ inst10|inst|inst|inst2~0_combout $end
$var wire 1 ] tenA2~input_o $end
$var wire 1 ^ tenB2~input_o $end
$var wire 1 _ tenA1~input_o $end
$var wire 1 ` inst10|inst|inst1|inst2~0_combout $end
$var wire 1 a inst10|inst|inst2|inst2~0_combout $end
$var wire 1 b tenA3~input_o $end
$var wire 1 c tenB3~input_o $end
$var wire 1 d inst10|inst|inst2|inst1|inst2~0_combout $end
$var wire 1 e inst10|inst4~0_combout $end
$var wire 1 f inst10|inst4~1_combout $end
$var wire 1 g inst10|inst2|inst1|inst|inst2~combout $end
$var wire 1 h inst10|inst|inst1|inst1|inst2~combout $end
$var wire 1 i inst10|inst2|inst2|inst1|inst2~0_combout $end
$var wire 1 j inst10|inst2|inst3|inst1|inst2~0_combout $end
$var wire 1 k inst|inst|inst|inst|inst2~0_combout $end
$var wire 1 l inst|inst2|inst1|inst|inst2~combout $end
$var wire 1 m inst|inst|inst2|inst1|inst2~0_combout $end
$var wire 1 n inst|inst2|inst2|inst1|inst2~0_combout $end
$var wire 1 o inst|inst2|inst3|inst1|inst2~0_combout $end
$upscope $end
$upscope $end
$enddefinitions $end
#0
$dumpvars
0!
0"
0#
0$
0%
0&
0'
0(
0)
0*
0+
0,
0-
0.
0/
00
01
02
03
04
15
06
07
08
09
1:
x;
1<
1=
1>
0?
z@
zA
zB
0C
0D
0E
0F
1G
0H
0I
0J
0K
0L
0M
0N
0O
0P
0Q
0R
0S
0T
0U
0V
0W
0X
0Y
0Z
0[
0\
0]
0^
0_
0`
0a
0b
0c
0d
0e
0f
0g
0h
0i
0j
0k
0l
0m
0n
0o
$end
#50000
1)
1-
1!
1%
1N
1O
1K
1Y
1V
1\
1W
1h
1e
1l
1g
1D
1H
16
12
#100000
1*
1.
1"
1&
0)
0-
0!
0%
0N
0O
0K
0Y
1M
1L
1[
1_
0V
1P
0\
1`
1m
0h
0l
0g
1i
1E
0D
0H
06
02
13
1n
1I
17
#150000
1)
1-
1!
1%
1N
1O
1K
1Y
1V
1\
1h
1l
1g
1D
1H
16
12
#200000
1+
1/
1#
1'
0*
0.
0"
0&
0)
0-
0!
0%
0N
0O
0K
0Y
0M
0L
0[
0_
1R
1Q
1^
1]
0V
0P
0\
0`
1S
1a
0W
0m
0h
0e
1X
1f
0l
0g
0i
0E
0D
0H
0X
0f
06
02
03
1o
1i
1j
1l
1Z
1g
1D
1C
1H
1F
1E
1J
18
13
14
16
11
12
0n
0l
0Z
0i
0g
0D
0E
0C
0H
0I
07
06
01
03
02
#250000
1)
1-
1!
1%
1N
1O
1K
1Y
1V
1\
1W
1h
1e
1l
1g
1D
1H
1X
1f
16
12
0o
0j
0F
0J
08
04
0l
1Z
0g
0D
1C
0H
06
11
02
#300000
1*
1.
1"
1&
0)
0-
0!
0%
0N
0O
0K
0Y
1M
1L
1[
1_
0V
1P
0\
1`
1m
0h
1n
1l
1g
1i
1E
1D
1H
1I
17
16
12
13
0n
0i
0E
0I
07
03
#350000
1)
1-
1!
1%
1N
1O
1K
1Y
1V
1\
1h
1n
0l
0g
0D
0H
1I
17
06
02
1i
1E
13
#400000
1,
10
1$
1(
0+
0/
0#
0'
0*
0.
0"
0&
0)
0-
0!
0%
0N
0O
0K
0Y
0M
0L
0[
0_
0R
0Q
0^
0]
1U
1T
1c
1b
0V
0P
0\
0`
0S
0a
0W
0m
0h
0e
0n
1l
1g
0i
1o
1j
1F
1J
0E
1D
1H
0I
07
16
12
03
18
14
0o
1n
1i
0j
0F
1E
1I
0J
08
17
13
04
#450000
1)
1-
1!
1%
1N
1O
1K
1Y
1V
1\
1W
1h
1e
0n
0l
0g
0D
0H
0I
07
06
02
1o
0i
1j
1F
0E
1J
18
03
14
#500000
1*
1.
1"
1&
0)
0-
0!
0%
0N
0O
0K
0Y
1M
1L
1[
1_
0V
1P
0\
1`
1m
0h
1n
1l
1g
1i
1E
1D
1H
1I
17
16
12
13
0n
0i
0E
0I
07
03
#550000
1)
1-
1!
1%
1N
1O
1K
1Y
1V
1\
1h
1n
0l
0g
0D
0H
1I
17
06
02
1i
1E
13
#600000
1+
1/
1#
1'
0*
0.
0"
0&
0)
0-
0!
0%
0N
0O
0K
0Y
0M
0L
0[
0_
1R
1Q
1^
1]
0V
0P
0\
0`
1S
1a
0W
0m
0h
0e
0n
1l
1g
0i
0o
0j
0F
0J
0E
1D
1H
0I
07
16
12
03
08
04
1o
1n
1i
1j
1F
1E
1I
1J
18
17
13
14
#650000
1)
1-
1!
1%
1N
1O
1K
1Y
1V
1\
1W
1h
1e
0n
0l
0g
0D
0H
0I
07
06
02
0o
0i
0j
0F
0E
0J
08
03
04
#700000
1*
1.
1"
1&
0)
0-
0!
0%
0N
0O
0K
0Y
1M
1L
1[
1_
0V
1P
0\
1`
1m
0h
1n
1l
1g
1i
1E
1D
1H
1I
17
16
12
13
0n
0i
0E
0I
07
03
#750000
1)
1-
1!
1%
1N
1O
1K
1Y
1V
1\
1h
1n
0l
0g
0D
0H
1I
17
06
02
1i
1E
13
#800000
0,
00
0$
0(
0+
0/
0#
0'
0*
0.
0"
0&
0)
0-
0!
0%
0N
0O
0K
0Y
0M
0L
0[
0_
0R
0Q
0^
0]
0U
0T
0c
0b
0V
0P
0\
0`
0S
0a
0W
0m
0h
0e
0X
0f
0n
1l
1g
0i
0E
1D
1H
0I
07
16
12
03
0l
0Z
0g
0D
0C
0H
06
01
02
#850000
1)
1-
1!
1%
1N
1O
1K
1Y
1V
1\
1W
1h
1e
1l
1g
1D
1H
16
12
#900000
1*
1.
1"
1&
0)
0-
0!
0%
0N
0O
0K
0Y
1M
1L
1[
1_
0V
1P
0\
1`
1m
0h
0l
0g
1i
1E
0D
0H
06
02
13
1n
1I
17
#950000
1)
1-
1!
1%
1N
1O
1K
1Y
1V
1\
1h
1l
1g
1D
1H
16
12
