tutorial/03-DataSelector/simulation/qsim/DataSelector.msim.vcd
$comment
	File created using the following command:
		vcd file DataSelector.msim.vcd -direction
$end
$date
	Fri Mar 24 15:13:52 2023
$end
$version
	ModelSim Version 10.5b
$end
$timescale
	1ps
$end

$scope module DataSelector_vlg_vec_tst $end
$var reg 1 ! I0 $end
$var reg 1 " I1 $end
$var reg 1 # I2 $end
$var reg 1 $ I3 $end
$var reg 1 % S0 $end
$var reg 1 & S1 $end
$var wire 1 ' z $end

$scope module i1 $end
$var wire 1 ( gnd $end
$var wire 1 ) vcc $end
$var wire 1 * unknown $end
$var tri1 1 + devclrn $end
$var tri1 1 , devpor $end
$var tri1 1 - devoe $end
$var wire 1 . ~QUARTUS_CREATED_GND~I_combout $end
$var wire 1 / ~QUARTUS_CREATED_UNVM~~busy $end
$var wire 1 0 ~QUARTUS_CREATED_ADC1~~eoc $end
$var wire 1 1 ~QUARTUS_CREATED_ADC2~~eoc $end
$var wire 1 2 z~output_o $end
$var wire 1 3 I2~input_o $end
$var wire 1 4 I0~input_o $end
$var wire 1 5 I1~input_o $end
$var wire 1 6 S1~input_o $end
$var wire 1 7 S0~input_o $end
$var wire 1 8 or0~0_combout $end
$var wire 1 9 I3~input_o $end
$var wire 1 : or0~1_combout $end
$upscope $end
$upscope $end
$enddefinitions $end
#0
$dumpvars
0!
0"
0#
0$
0%
0&
0'
0(
1)
x*
1+
1,
1-
0.
z/
z0
z1
02
03
04
05
06
07
08
09
0:
$end
#50000
1&
16
#100000
1%
0&
06
17
#150000
1&
16
18
#200000
1!
1"
1#
1$
0%
0&
06
07
19
13
15
14
1:
12
1'
#250000
1&
16
08
#300000
1%
0&
06
17
18
0:
02
0'
1:
12
1'
#350000
1&
16
#400000
0!
0"
0#
0$
0%
0&
06
07
09
03
05
04
08
0:
02
0'
#450000
1&
16
#500000
1%
0&
06
17
#550000
1&
16
18
#600000
0%
0&
06
07
08
1:
12
1'
0:
02
0'
#650000
1&
16
#700000
1%
0&
06
17
#750000
1&
16
18
#800000
0%
0&
06
07
08
1:
12
1'
0:
02
0'
#850000
1&
16
#900000
1%
0&
06
17
#950000
1&
16
18
