tutorial/12-VHDL-pwm-breathing-light/simulation/qsim/ex12.msim.vcd
$comment
	File created using the following command:
		vcd file ex12.msim.vcd -direction
$end
$date
	Sat Jul 01 17:24:18 2023
$end
$version
	ModelSim Version 10.5b
$end
$timescale
	1ps
$end

$scope module breathing_vhd_vec_tst $end
$var wire 1 ! br_i_clk $end
$var wire 1 " br_i_enable $end
$var wire 1 # br_i_rstn $end
$var wire 1 $ br_o_op $end

$scope module i1 $end
$var wire 1 % gnd $end
$var wire 1 & vcc $end
$var wire 1 ' unknown $end
$var wire 1 ( devoe $end
$var wire 1 ) devclrn $end
$var wire 1 * devpor $end
$var wire 1 + ww_devoe $end
$var wire 1 , ww_devclrn $end
$var wire 1 - ww_devpor $end
$var wire 1 . ww_br_i_clk $end
$var wire 1 / ww_br_i_rstn $end
$var wire 1 0 ww_br_i_enable $end
$var wire 1 1 ww_br_o_op $end
$var wire 1 2 \~QUARTUS_CREATED_ADC1~_CHSEL_bus\ [4] $end
$var wire 1 3 \~QUARTUS_CREATED_ADC1~_CHSEL_bus\ [3] $end
$var wire 1 4 \~QUARTUS_CREATED_ADC1~_CHSEL_bus\ [2] $end
$var wire 1 5 \~QUARTUS_CREATED_ADC1~_CHSEL_bus\ [1] $end
$var wire 1 6 \~QUARTUS_CREATED_ADC1~_CHSEL_bus\ [0] $end
$var wire 1 7 \~QUARTUS_CREATED_ADC2~_CHSEL_bus\ [4] $end
$var wire 1 8 \~QUARTUS_CREATED_ADC2~_CHSEL_bus\ [3] $end
$var wire 1 9 \~QUARTUS_CREATED_ADC2~_CHSEL_bus\ [2] $end
$var wire 1 : \~QUARTUS_CREATED_ADC2~_CHSEL_bus\ [1] $end
$var wire 1 ; \~QUARTUS_CREATED_ADC2~_CHSEL_bus\ [0] $end
$var wire 1 < \br_i_clk~inputclkctrl_INCLK_bus\ [3] $end
$var wire 1 = \br_i_clk~inputclkctrl_INCLK_bus\ [2] $end
$var wire 1 > \br_i_clk~inputclkctrl_INCLK_bus\ [1] $end
$var wire 1 ? \br_i_clk~inputclkctrl_INCLK_bus\ [0] $end
$var wire 1 @ \~QUARTUS_CREATED_GND~I_combout\ $end
$var wire 1 A \~QUARTUS_CREATED_UNVM~~busy\ $end
$var wire 1 B \~QUARTUS_CREATED_ADC1~~eoc\ $end
$var wire 1 C \~QUARTUS_CREATED_ADC2~~eoc\ $end
$var wire 1 D \br_o_op~output_o\ $end
$var wire 1 E \br_i_clk~input_o\ $end
$var wire 1 F \br_i_clk~inputclkctrl_outclk\ $end
$var wire 1 G \br_i_enable~input_o\ $end
$var wire 1 H \u0|r_cntr[0]~8_combout\ $end
$var wire 1 I \br_i_rstn~input_o\ $end
$var wire 1 J \u0|r_cntr[0]~9\ $end
$var wire 1 K \u0|r_cntr[1]~10_combout\ $end
$var wire 1 L \u0|r_cntr[1]~11\ $end
$var wire 1 M \u0|r_cntr[2]~12_combout\ $end
$var wire 1 N \u0|r_cntr[2]~13\ $end
$var wire 1 O \u0|r_cntr[3]~14_combout\ $end
$var wire 1 P \u0|Equal1~0_combout\ $end
$var wire 1 Q \u0|r_cntr[3]~15\ $end
$var wire 1 R \u0|r_cntr[4]~16_combout\ $end
$var wire 1 S \u0|r_cntr[4]~17\ $end
$var wire 1 T \u0|r_cntr[5]~18_combout\ $end
$var wire 1 U \u0|r_cntr[5]~19\ $end
$var wire 1 V \u0|r_cntr[6]~20_combout\ $end
$var wire 1 W \u0|r_cntr[6]~21\ $end
$var wire 1 X \u0|r_cntr[7]~22_combout\ $end
$var wire 1 Y \u0|Equal1~1_combout\ $end
$var wire 1 Z \u0|Selector0~0_combout\ $end
$var wire 1 [ \u0|Selector0~1_combout\ $end
$var wire 1 \ \u0|r_curr_state.x0~q\ $end
$var wire 1 ] \u0|Selector1~0_combout\ $end
$var wire 1 ^ \r_lg[0]~8_combout\ $end
$var wire 1 _ \w_lg~0_combout\ $end
$var wire 1 ` \r_lg[0]~9\ $end
$var wire 1 a \r_lg[1]~11\ $end
$var wire 1 b \r_lg[2]~12_combout\ $end
$var wire 1 c \r_lg[2]~13\ $end
$var wire 1 d \r_lg[3]~14_combout\ $end
$var wire 1 e \Equal1~0_combout\ $end
$var wire 1 f \r_lg[3]~15\ $end
$var wire 1 g \r_lg[4]~16_combout\ $end
$var wire 1 h \r_lg[4]~17\ $end
$var wire 1 i \r_lg[5]~18_combout\ $end
$var wire 1 j \r_lg[5]~19\ $end
$var wire 1 k \r_lg[6]~20_combout\ $end
$var wire 1 l \r_lg[6]~21\ $end
$var wire 1 m \r_lg[7]~22_combout\ $end
$var wire 1 n \Equal1~1_combout\ $end
$var wire 1 o \Selector2~0_combout\ $end
$var wire 1 p \r_dcnt[0]~16_combout\ $end
$var wire 1 q \r_dcnt[0]~17\ $end
$var wire 1 r \r_dcnt[1]~18_combout\ $end
$var wire 1 s \r_dcnt[1]~19\ $end
$var wire 1 t \r_dcnt[2]~20_combout\ $end
$var wire 1 u \r_dcnt[2]~21\ $end
$var wire 1 v \r_dcnt[3]~22_combout\ $end
$var wire 1 w \r_dcnt[3]~23\ $end
$var wire 1 x \r_dcnt[4]~24_combout\ $end
$var wire 1 y \r_dcnt[4]~25\ $end
$var wire 1 z \r_dcnt[5]~26_combout\ $end
$var wire 1 { \r_dcnt[5]~27\ $end
$var wire 1 | \r_dcnt[6]~28_combout\ $end
$var wire 1 } \r_dcnt[6]~29\ $end
$var wire 1 ~ \r_dcnt[7]~30_combout\ $end
$var wire 1 !! \r_dcnt[7]~31\ $end
$var wire 1 "! \r_dcnt[8]~32_combout\ $end
$var wire 1 #! \r_dcnt[8]~33\ $end
$var wire 1 $! \r_dcnt[9]~34_combout\ $end
$var wire 1 %! \r_dcnt[9]~35\ $end
$var wire 1 &! \r_dcnt[10]~36_combout\ $end
$var wire 1 '! \r_dcnt[10]~37\ $end
$var wire 1 (! \r_dcnt[11]~38_combout\ $end
$var wire 1 )! \r_dcnt[11]~39\ $end
$var wire 1 *! \r_dcnt[12]~40_combout\ $end
$var wire 1 +! \r_dcnt[12]~41\ $end
$var wire 1 ,! \r_dcnt[13]~42_combout\ $end
$var wire 1 -! \r_dcnt[13]~43\ $end
$var wire 1 .! \r_dcnt[14]~44_combout\ $end
$var wire 1 /! \r_dcnt[14]~45\ $end
$var wire 1 0! \r_dcnt[15]~46_combout\ $end
$var wire 1 1! \Equal0~3_combout\ $end
$var wire 1 2! \Equal0~2_combout\ $end
$var wire 1 3! \Equal0~0_combout\ $end
$var wire 1 4! \Equal0~1_combout\ $end
$var wire 1 5! \Equal0~4_combout\ $end
$var wire 1 6! \Selector2~1_combout\ $end
$var wire 1 7! \r_curr_state.x3~q\ $end
$var wire 1 8! \w_next_state.x4~0_combout\ $end
$var wire 1 9! \r_curr_state.x4~q\ $end
$var wire 1 :! \Selector1~0_combout\ $end
$var wire 1 ;! \Selector0~0_combout\ $end
$var wire 1 <! \r_curr_state.x0~q\ $end
$var wire 1 =! \Selector1~1_combout\ $end
$var wire 1 >! \Selector1~2_combout\ $end
$var wire 1 ?! \r_curr_state.x1~q\ $end
$var wire 1 @! \w_next_state.x2~0_combout\ $end
$var wire 1 A! \r_curr_state.x2~q\ $end
$var wire 1 B! \r_lg[1]~10_combout\ $end
$var wire 1 C! \u0|Equal0~0_combout\ $end
$var wire 1 D! \u0|Equal0~3_combout\ $end
$var wire 1 E! \u0|Equal0~2_combout\ $end
$var wire 1 F! \u0|Equal0~1_combout\ $end
$var wire 1 G! \u0|Equal0~4_combout\ $end
$var wire 1 H! \u0|Selector1~1_combout\ $end
$var wire 1 I! \u0|r_curr_state.x1~q\ $end
$var wire 1 J! \u0|Selector2~0_combout\ $end
$var wire 1 K! \u0|Selector2~1_combout\ $end
$var wire 1 L! \u0|r_curr_state.x2~q\ $end
$var wire 1 M! \u0|r_pwmbuf~feeder_combout\ $end
$var wire 1 N! \u0|r_pwmbuf~q\ $end
$var wire 1 O! \u0|r_cntr\ [7] $end
$var wire 1 P! \u0|r_cntr\ [6] $end
$var wire 1 Q! \u0|r_cntr\ [5] $end
$var wire 1 R! \u0|r_cntr\ [4] $end
$var wire 1 S! \u0|r_cntr\ [3] $end
$var wire 1 T! \u0|r_cntr\ [2] $end
$var wire 1 U! \u0|r_cntr\ [1] $end
$var wire 1 V! \u0|r_cntr\ [0] $end
$var wire 1 W! r_lg [7] $end
$var wire 1 X! r_lg [6] $end
$var wire 1 Y! r_lg [5] $end
$var wire 1 Z! r_lg [4] $end
$var wire 1 [! r_lg [3] $end
$var wire 1 \! r_lg [2] $end
$var wire 1 ]! r_lg [1] $end
$var wire 1 ^! r_lg [0] $end
$var wire 1 _! r_dcnt [15] $end
$var wire 1 `! r_dcnt [14] $end
$var wire 1 a! r_dcnt [13] $end
$var wire 1 b! r_dcnt [12] $end
$var wire 1 c! r_dcnt [11] $end
$var wire 1 d! r_dcnt [10] $end
$var wire 1 e! r_dcnt [9] $end
$var wire 1 f! r_dcnt [8] $end
$var wire 1 g! r_dcnt [7] $end
$var wire 1 h! r_dcnt [6] $end
$var wire 1 i! r_dcnt [5] $end
$var wire 1 j! r_dcnt [4] $end
$var wire 1 k! r_dcnt [3] $end
$var wire 1 l! r_dcnt [2] $end
$var wire 1 m! r_dcnt [1] $end
$var wire 1 n! r_dcnt [0] $end
$var wire 1 o! \ALT_INV_r_curr_state.x0~q\ $end
$var wire 1 p! \u0|ALT_INV_r_curr_state.x0~q\ $end
$upscope $end
$upscope $end
$enddefinitions $end
#0
$dumpvars
0!
1"
1#
0$
0%
1&
x'
1(
1)
1*
1+
1,
1-
0.
1/
10
01
0@
zA
zB
zC
0D
0E
0F
1G
1H
1I
0J
0K
1L
0M
0N
0O
0P
1Q
0R
0S
0T
1U
0V
0W
0X
0Y
0Z
1[
0\
1]
1^
1_
0`
1a
1b
0c
1d
0e
1f
1g
0h
1i
1j
1k
0l
1m
1n
0o
1p
0q
0r
1s
0t
0u
0v
1w
0x
0y
0z
1{
0|
0}
0~
1!!
0"!
0#!
0$!
1%!
0&!
0'!
0(!
1)!
0*!
0+!
0,!
1-!
0.!
0/!
00!
01!
02!
03!
04!
05!
06!
07!
08!
09!
0:!
1;!
0<!
1=!
1>!
0?!
0@!
0A!
1B!
1C!
1D!
1E!
1F!
1G!
1H!
0I!
0J!
0K!
0L!
0M!
0N!
1o!
1p!
0O!
0P!
0Q!
0R!
0S!
0T!
0U!
0V!
0W!
0X!
0Y!
0Z!
0[!
0\!
0]!
0^!
0_!
0`!
0a!
0b!
0c!
0d!
0e!
0f!
0g!
0h!
0i!
0j!
0k!
0l!
0m!
0n!
1<
1=
1>
0?
02
03
04
05
06
07
08
09
0:
0;
$end
#5000
1!
1.
1E
1?
1F
1\
1<!
1?!
1I!
0o!
0p!
1K!
0_
0=!
0]
0H!
#10000
0!
0.
0E
0?
0F
#15000
1!
1.
1E
1?
1F
1V!
1n!
0I!
1L!
1J!
1M!
0K!
0p
1q
0H
1J
0C!
0G!
1K
1r
1K!
#20000
0!
0.
0E
0?
0F
#25000
1!
1.
1E
1?
1F
0V!
1U!
0n!
1m!
1N!
1D
0r
0s
1p
0q
0K
0L
1H
0J
11
1K
1L
1M
1r
1s
1t
1$
0t
0M
#30000
0!
0.
0E
0?
0F
#35000
1!
1.
1E
1?
1F
1V!
1n!
0p
1q
0H
1J
0K
0L
0r
0s
1t
1M
#40000
0!
0.
0E
0?
0F
#45000
1!
1.
1E
1?
1F
0V!
0U!
1T!
0n!
0m!
1l!
0t
1u
1r
1s
1p
0q
0M
1N
0F!
1K
1L
1H
0J
1C!
0K
1M
0N
1O
0r
1t
0u
1v
0v
0O
#50000
0!
0.
0E
0?
0F
#55000
1!
1.
1E
1?
1F
1V!
1n!
0p
1q
0H
1J
0C!
1K
1r
#60000
0!
0.
0E
0?
0F
#65000
1!
1.
1E
1?
1F
0V!
1U!
0n!
1m!
0r
0s
1p
0q
0K
0L
1H
0J
1K
1L
0M
1N
1r
1s
0t
1u
1v
1t
0u
1O
1M
0N
0O
0v
#70000
0!
0.
0E
0?
0F
#75000
1!
1.
1E
1?
1F
1V!
1n!
0p
1q
0H
1J
0K
0L
0r
0s
0t
1u
0M
1N
1O
1v
#80000
0!
0.
0E
0?
0F
#85000
1!
1.
1E
1?
1F
0V!
0U!
0T!
1S!
0n!
0m!
0l!
1k!
0v
0w
1t
0u
1r
1s
1p
0q
0O
0Q
1M
0N
1K
1L
1H
0J
1C!
0K
0M
1O
1Q
1R
0r
0t
1v
1w
1x
0x
0R
#90000
0!
0.
0E
0?
0F
#95000
1!
1.
1E
1?
1F
1V!
1n!
0p
1q
0H
1J
0C!
1K
1r
#100000
0!
0.
0E
0?
0F
#105000
1!
1.
1E
1?
1F
0V!
1U!
0n!
1m!
0r
0s
1p
0q
0K
0L
1H
0J
1K
1L
1M
1r
1s
1t
0t
0M
#110000
0!
0.
0E
0?
0F
#115000
1!
1.
1E
1?
1F
1V!
1n!
0p
1q
0H
1J
0K
0L
0r
0s
1t
1M
#120000
0!
0.
0E
0?
0F
#125000
1!
1.
1E
1?
1F
0V!
0U!
1T!
0n!
0m!
1l!
0t
1u
1r
1s
1p
0q
0M
1N
1K
1L
1H
0J
1C!
0K
1M
0N
0O
0Q
0r
1t
0u
0v
0w
1x
1v
1w
1R
1O
1Q
0R
0x
#130000
0!
0.
0E
0?
0F
#135000
1!
1.
1E
1?
1F
1V!
1n!
0p
1q
0H
1J
0C!
1K
1r
#140000
0!
0.
0E
0?
0F
#145000
1!
1.
1E
1?
1F
0V!
1U!
0n!
1m!
0r
0s
1p
0q
0K
0L
1H
0J
1K
1L
0M
1N
1r
1s
0t
1u
0v
0w
1t
0u
0O
0Q
1M
0N
1O
1Q
1R
1v
1w
1x
0x
0R
#150000
0!
0.
0E
0?
0F
#155000
1!
1.
1E
1?
1F
1V!
1n!
0p
1q
13!
0H
1J
1P
0K
0L
0r
0s
0t
1u
0M
1N
0O
0Q
0v
0w
1x
1R
#160000
0!
0.
0E
0?
0F
#165000
1!
1.
1E
1?
1F
0V!
0U!
0T!
0S!
1R!
0n!
0m!
0l!
0k!
1j!
0x
1y
1v
1w
1t
0u
1r
1s
1p
0q
03!
0R
1S
0E!
1O
1Q
1M
0N
1F!
1K
1L
1H
0J
0P
1C!
0K
0M
0O
1R
0S
1T
0r
0t
0v
1x
0y
1z
0z
0T
#170000
0!
0.
0E
0?
0F
#175000
1!
1.
1E
1?
1F
1V!
1n!
0p
1q
0H
1J
0C!
1K
1r
#180000
0!
0.
0E
0?
0F
#185000
1!
1.
1E
1?
1F
0V!
1U!
0n!
1m!
0r
0s
1p
0q
0K
0L
1H
0J
1K
1L
1M
1r
1s
1t
0t
0M
#190000
0!
0.
0E
0?
0F
#195000
1!
1.
1E
1?
1F
1V!
1n!
0p
1q
0H
1J
0K
0L
0r
0s
1t
1M
#200000
0!
0.
0E
0?
0F
#205000
1!
1.
1E
1?
1F
0V!
0U!
1T!
0n!
0m!
1l!
0t
1u
1r
1s
1p
0q
0M
1N
0F!
1K
1L
1H
0J
1C!
0K
1M
0N
1O
0r
1t
0u
1v
0v
0O
#210000
0!
0.
0E
0?
0F
#215000
1!
1.
1E
1?
1F
1V!
1n!
0p
1q
0H
1J
0C!
1K
1r
#220000
0!
0.
0E
0?
0F
#225000
1!
1.
1E
1?
1F
0V!
1U!
0n!
1m!
0r
0s
1p
0q
0K
0L
1H
0J
1K
1L
0M
1N
1r
1s
0t
1u
1v
1t
0u
1O
1M
0N
0O
0v
#230000
0!
0.
0E
0?
0F
#235000
1!
1.
1E
1?
1F
1V!
1n!
0p
1q
0H
1J
0K
0L
0r
0s
0t
1u
0M
1N
1O
1v
#240000
0!
0.
0E
0?
0F
#245000
1!
1.
1E
1?
1F
0V!
0U!
0T!
1S!
0n!
0m!
0l!
1k!
0v
0w
1t
0u
1r
1s
1p
0q
0O
0Q
1M
0N
1K
1L
1H
0J
1C!
0K
0M
1O
1Q
0R
1S
0r
0t
1v
1w
0x
1y
1z
1x
0y
1T
1R
0S
0T
0z
#250000
0!
0.
0E
0?
0F
#255000
1!
1.
1E
1?
1F
1V!
1n!
0p
1q
0H
1J
0C!
1K
1r
#260000
0!
0.
0E
0?
0F
#265000
1!
1.
1E
1?
1F
0V!
1U!
0n!
1m!
0r
0s
1p
0q
0K
0L
1H
0J
1K
1L
1M
1r
1s
1t
0t
0M
#270000
0!
0.
0E
0?
0F
#275000
1!
1.
1E
1?
1F
1V!
1n!
0p
1q
0H
1J
0K
0L
0r
0s
1t
1M
#280000
0!
0.
0E
0?
0F
#285000
1!
1.
1E
1?
1F
0V!
0U!
1T!
0n!
0m!
1l!
0t
1u
1r
1s
1p
0q
0M
1N
1K
1L
1H
0J
1C!
0K
1M
0N
0O
0Q
0r
1t
0u
0v
0w
0x
1y
1v
1w
0R
1S
1O
1Q
1R
0S
1T
1x
0y
1z
0z
0T
#290000
0!
0.
0E
0?
0F
#295000
1!
1.
1E
1?
1F
1V!
1n!
0p
1q
0H
1J
0C!
1K
1r
#300000
0!
0.
0E
0?
0F
#305000
1!
1.
1E
1?
1F
0V!
1U!
0n!
1m!
0r
0s
1p
0q
0K
0L
1H
0J
1K
1L
0M
1N
1r
1s
0t
1u
0v
0w
1t
0u
0O
0Q
1M
0N
1O
1Q
0R
1S
1v
1w
0x
1y
1z
1x
0y
1T
1R
0S
0T
0z
#310000
0!
0.
0E
0?
0F
#315000
1!
1.
1E
1?
1F
1V!
1n!
0p
1q
13!
0H
1J
1P
0K
0L
0r
0s
0t
1u
0M
1N
0O
0Q
0v
0w
0x
1y
0R
1S
1T
1z
#320000
0!
0.
0E
0?
0F
#325000
1!
1.
1E
1?
1F
0V!
0U!
0T!
0S!
0R!
1Q!
0n!
0m!
0l!
0k!
0j!
1i!
0z
0{
1x
0y
1v
1w
1t
0u
1r
1s
1p
0q
03!
0T
0U
1R
0S
1O
1Q
1M
0N
1F!
1K
1L
1H
0J
0P
1C!
0K
0M
0O
0R
1T
1U
1V
0r
0t
0v
0x
1z
1{
1|
0|
0V
#330000
0!
0.
0E
0?
0F
#335000
1!
1.
1E
1?
1F
1V!
1n!
0p
1q
0H
1J
0C!
1K
1r
#340000
0!
0.
0E
0?
0F
#345000
1!
1.
1E
1?
1F
0V!
1U!
0n!
1m!
0r
0s
1p
0q
0K
0L
1H
0J
1K
1L
1M
1r
1s
1t
0t
0M
#350000
0!
0.
0E
0?
0F
#355000
1!
1.
1E
1?
1F
1V!
1n!
0p
1q
0H
1J
0K
0L
0r
0s
1t
1M
#360000
0!
0.
0E
0?
0F
#365000
1!
1.
1E
1?
1F
0V!
0U!
1T!
0n!
0m!
1l!
0t
1u
1r
1s
1p
0q
0M
1N
0F!
1K
1L
1H
0J
1C!
0K
1M
0N
1O
0r
1t
0u
1v
0v
0O
#370000
0!
0.
0E
0?
0F
#375000
1!
1.
1E
1?
1F
1V!
1n!
0p
1q
0H
1J
0C!
1K
1r
#380000
0!
0.
0E
0?
0F
#385000
1!
1.
1E
1?
1F
0V!
1U!
0n!
1m!
0r
0s
1p
0q
0K
0L
1H
0J
1K
1L
0M
1N
1r
1s
0t
1u
1v
1t
0u
1O
1M
0N
0O
0v
#390000
0!
0.
0E
0?
0F
#395000
1!
1.
1E
1?
1F
1V!
1n!
0p
1q
0H
1J
0K
0L
0r
0s
0t
1u
0M
1N
1O
1v
#400000
0!
0.
0E
0?
0F
#405000
1!
1.
1E
1?
1F
0V!
0U!
0T!
1S!
0n!
0m!
0l!
1k!
0v
0w
1t
0u
1r
1s
1p
0q
0O
0Q
1M
0N
1K
1L
1H
0J
1C!
0K
0M
1O
1Q
1R
0r
0t
1v
1w
1x
0x
0R
#410000
0!
0.
0E
0?
0F
#415000
1!
1.
1E
1?
1F
1V!
1n!
0p
1q
0H
1J
0C!
1K
1r
#420000
0!
0.
0E
0?
0F
#425000
1!
1.
1E
1?
1F
0V!
1U!
0n!
1m!
0r
0s
1p
0q
0K
0L
1H
0J
1K
1L
1M
1r
1s
1t
0t
0M
#430000
0!
0.
0E
0?
0F
#435000
1!
1.
1E
1?
1F
1V!
1n!
0p
1q
0H
1J
0K
0L
0r
0s
1t
1M
#440000
0!
0.
0E
0?
0F
#445000
1!
1.
1E
1?
1F
0V!
0U!
1T!
0n!
0m!
1l!
0t
1u
1r
1s
1p
0q
0M
1N
1K
1L
1H
0J
1C!
0K
1M
0N
0O
0Q
0r
1t
0u
0v
0w
1x
1v
1w
1R
1O
1Q
0R
0x
#450000
0!
0.
0E
0?
0F
#455000
1!
1.
1E
1?
1F
1V!
1n!
0p
1q
0H
1J
0C!
1K
1r
#460000
0!
0.
0E
0?
0F
#465000
1!
1.
1E
1?
1F
0V!
1U!
0n!
1m!
0r
0s
1p
0q
0K
0L
1H
0J
1K
1L
0M
1N
1r
1s
0t
1u
0v
0w
1t
0u
0O
0Q
1M
0N
1O
1Q
1R
1v
1w
1x
0x
0R
#470000
0!
0.
0E
0?
0F
#475000
1!
1.
1E
1?
1F
1V!
1n!
0p
1q
13!
0H
1J
1P
0K
0L
0r
0s
0t
1u
0M
1N
0O
0Q
0v
0w
1x
1R
#480000
0!
0.
0E
0?
0F
#485000
1!
1.
1E
1?
1F
0V!
0U!
0T!
0S!
1R!
0n!
0m!
0l!
0k!
1j!
0x
1y
1v
1w
1t
0u
1r
1s
1p
0q
03!
0R
1S
1O
1Q
1M
0N
1F!
1K
1L
1H
0J
0P
1C!
0K
0M
0O
1R
0S
0T
0U
0r
0t
0v
1x
0y
0z
0{
1|
1z
1{
1V
1T
1U
0V
0|
#490000
0!
0.
0E
0?
0F
#495000
1!
1.
1E
1?
1F
1V!
1n!
0p
1q
0H
1J
0C!
1K
1r
#500000
0!
0.
0E
0?
0F
#505000
1!
1.
1E
1?
1F
0V!
1U!
0n!
1m!
0r
0s
1p
0q
0K
0L
1H
0J
1K
1L
1M
1r
1s
1t
0t
0M
#510000
0!
0.
0E
0?
0F
#515000
1!
1.
1E
1?
1F
1V!
1n!
0p
1q
0H
1J
0K
0L
0r
0s
1t
1M
#520000
0!
0.
0E
0?
0F
#525000
1!
1.
1E
1?
1F
0V!
0U!
1T!
0n!
0m!
1l!
0t
1u
1r
1s
1p
0q
0M
1N
0F!
1K
1L
1H
0J
1C!
0K
1M
0N
1O
0r
1t
0u
1v
0v
0O
#530000
0!
0.
0E
0?
0F
#535000
1!
1.
1E
1?
1F
1V!
1n!
0p
1q
0H
1J
0C!
1K
1r
#540000
0!
0.
0E
0?
0F
#545000
1!
1.
1E
1?
1F
0V!
1U!
0n!
1m!
0r
0s
1p
0q
0K
0L
1H
0J
1K
1L
0M
1N
1r
1s
0t
1u
1v
1t
0u
1O
1M
0N
0O
0v
#550000
0!
0.
0E
0?
0F
#555000
1!
1.
1E
1?
1F
1V!
1n!
0p
1q
0H
1J
0K
0L
0r
0s
0t
1u
0M
1N
1O
1v
#560000
0!
0.
0E
0?
0F
#565000
1!
1.
1E
1?
1F
0V!
0U!
0T!
1S!
0n!
0m!
0l!
1k!
0v
0w
1t
0u
1r
1s
1p
0q
0O
0Q
1M
0N
1K
1L
1H
0J
1C!
0K
0M
1O
1Q
0R
1S
0r
0t
1v
1w
0x
1y
0z
0{
1x
0y
0T
0U
1R
0S
1T
1U
1V
1z
1{
1|
0|
0V
#570000
0!
0.
0E
0?
0F
#575000
1!
1.
1E
1?
1F
1V!
1n!
0p
1q
0H
1J
0C!
1K
1r
#580000
0!
0.
0E
0?
0F
#585000
1!
1.
1E
1?
1F
0V!
1U!
0n!
1m!
0r
0s
1p
0q
0K
0L
1H
0J
1K
1L
1M
1r
1s
1t
0t
0M
#590000
0!
0.
0E
0?
0F
#595000
1!
1.
1E
1?
1F
1V!
1n!
0p
1q
0H
1J
0K
0L
0r
0s
1t
1M
#600000
0!
0.
0E
0?
0F
#605000
1!
1.
1E
1?
1F
0V!
0U!
1T!
0n!
0m!
1l!
0t
1u
1r
1s
1p
0q
0M
1N
1K
1L
1H
0J
1C!
0K
1M
0N
0O
0Q
0r
1t
0u
0v
0w
0x
1y
1v
1w
0R
1S
1O
1Q
1R
0S
0T
0U
1x
0y
0z
0{
1|
1z
1{
1V
1T
1U
0V
0|
#610000
0!
0.
0E
0?
0F
#615000
1!
1.
1E
1?
1F
1V!
1n!
0p
1q
0H
1J
0C!
1K
1r
#620000
0!
0.
0E
0?
0F
#625000
1!
1.
1E
1?
1F
0V!
1U!
0n!
1m!
0r
0s
1p
0q
0K
0L
1H
0J
1K
1L
0M
1N
1r
1s
0t
1u
0v
0w
1t
0u
0O
0Q
1M
0N
1O
1Q
0R
1S
1v
1w
0x
1y
0z
0{
1x
0y
0T
0U
1R
0S
1T
1U
1V
1z
1{
1|
0|
0V
#630000
0!
0.
0E
0?
0F
#635000
1!
1.
1E
1?
1F
1V!
1n!
0p
1q
13!
0H
1J
1P
0K
0L
0r
0s
0t
1u
0M
1N
0O
0Q
0v
0w
0x
1y
0R
1S
0T
0U
0z
0{
1|
1V
#640000
0!
0.
0E
0?
0F
#645000
1!
1.
1E
1?
1F
0V!
0U!
0T!
0S!
0R!
0Q!
1P!
0n!
0m!
0l!
0k!
0j!
0i!
1h!
0|
1}
1z
1{
1x
0y
1v
1w
1t
0u
1r
1s
1p
0q
03!
0V
1W
0D!
1T
1U
1R
0S
1E!
1O
1Q
1M
0N
1F!
1K
1L
1H
0J
0P
1C!
0K
0M
0O
0R
0T
1V
0W
1X
0r
0t
0v
0x
0z
1|
0}
1~
0~
0X
#650000
0!
0.
0E
0?
0F
#655000
1!
1.
1E
1?
1F
1V!
1n!
0p
1q
0H
1J
0C!
1K
1r
#660000
0!
0.
0E
0?
0F
#665000
1!
1.
1E
1?
1F
0V!
1U!
0n!
1m!
0r
0s
1p
0q
0K
0L
1H
0J
1K
1L
1M
1r
1s
1t
0t
0M
#670000
0!
0.
0E
0?
0F
#675000
1!
1.
1E
1?
1F
1V!
1n!
0p
1q
0H
1J
0K
0L
0r
0s
1t
1M
#680000
0!
0.
0E
0?
0F
#685000
1!
1.
1E
1?
1F
0V!
0U!
1T!
0n!
0m!
1l!
0t
1u
1r
1s
1p
0q
0M
1N
0F!
1K
1L
1H
0J
1C!
0K
1M
0N
1O
0r
1t
0u
1v
0v
0O
#690000
0!
0.
0E
0?
0F
#695000
1!
1.
1E
1?
1F
1V!
1n!
0p
1q
0H
1J
0C!
1K
1r
#700000
0!
0.
0E
0?
0F
#705000
1!
1.
1E
1?
1F
0V!
1U!
0n!
1m!
0r
0s
1p
0q
0K
0L
1H
0J
1K
1L
0M
1N
1r
1s
0t
1u
1v
1t
0u
1O
1M
0N
0O
0v
#710000
0!
0.
0E
0?
0F
#715000
1!
1.
1E
1?
1F
1V!
1n!
0p
1q
0H
1J
0K
0L
0r
0s
0t
1u
0M
1N
1O
1v
#720000
0!
0.
0E
0?
0F
#725000
1!
1.
1E
1?
1F
0V!
0U!
0T!
1S!
0n!
0m!
0l!
1k!
0v
0w
1t
0u
1r
1s
1p
0q
0O
0Q
1M
0N
1K
1L
1H
0J
1C!
0K
0M
1O
1Q
1R
0r
0t
1v
1w
1x
0x
0R
#730000
0!
0.
0E
0?
0F
#735000
1!
1.
1E
1?
1F
1V!
1n!
0p
1q
0H
1J
0C!
1K
1r
#740000
0!
0.
0E
0?
0F
#745000
1!
1.
1E
1?
1F
0V!
1U!
0n!
1m!
0r
0s
1p
0q
0K
0L
1H
0J
1K
1L
1M
1r
1s
1t
0t
0M
#750000
0!
0.
0E
0?
0F
#755000
1!
1.
1E
1?
1F
1V!
1n!
0p
1q
0H
1J
0K
0L
0r
0s
1t
1M
#760000
0!
0.
0E
0?
0F
#765000
1!
1.
1E
1?
1F
0V!
0U!
1T!
0n!
0m!
1l!
0t
1u
1r
1s
1p
0q
0M
1N
1K
1L
1H
0J
1C!
0K
1M
0N
0O
0Q
0r
1t
0u
0v
0w
1x
1v
1w
1R
1O
1Q
0R
0x
#770000
0!
0.
0E
0?
0F
#775000
1!
1.
1E
1?
1F
1V!
1n!
0p
1q
0H
1J
0C!
1K
1r
#780000
0!
0.
0E
0?
0F
#785000
1!
1.
1E
1?
1F
0V!
1U!
0n!
1m!
0r
0s
1p
0q
0K
0L
1H
0J
1K
1L
0M
1N
1r
1s
0t
1u
0v
0w
1t
0u
0O
0Q
1M
0N
1O
1Q
1R
1v
1w
1x
0x
0R
#790000
0!
0.
0E
0?
0F
#795000
1!
1.
1E
1?
1F
1V!
1n!
0p
1q
13!
0H
1J
1P
0K
0L
0r
0s
0t
1u
0M
1N
0O
0Q
0v
0w
1x
1R
#800000
0!
0.
0E
0?
0F
#805000
1!
1.
1E
1?
1F
0V!
0U!
0T!
0S!
1R!
0n!
0m!
0l!
0k!
1j!
0x
1y
1v
1w
1t
0u
1r
1s
1p
0q
03!
0R
1S
0E!
1O
1Q
1M
0N
1F!
1K
1L
1H
0J
0P
1C!
0K
0M
0O
1R
0S
1T
0r
0t
0v
1x
0y
1z
0z
0T
#810000
0!
0.
0E
0?
0F
#815000
1!
1.
1E
1?
1F
1V!
1n!
0p
1q
0H
1J
0C!
1K
1r
#820000
0!
0.
0E
0?
0F
#825000
1!
1.
1E
1?
1F
0V!
1U!
0n!
1m!
0r
0s
1p
0q
0K
0L
1H
0J
1K
1L
1M
1r
1s
1t
0t
0M
#830000
0!
0.
0E
0?
0F
#835000
1!
1.
1E
1?
1F
1V!
1n!
0p
1q
0H
1J
0K
0L
0r
0s
1t
1M
#840000
0!
0.
0E
0?
0F
#845000
1!
1.
1E
1?
1F
0V!
0U!
1T!
0n!
0m!
1l!
0t
1u
1r
1s
1p
0q
0M
1N
0F!
1K
1L
1H
0J
1C!
0K
1M
0N
1O
0r
1t
0u
1v
0v
0O
