07_VHDL/simulation/qsim/EX08.msim.vcd
$comment
	File created using the following command:
		vcd file EX08.msim.vcd -direction
$end
$date
	Tue May 10 16:56:46 2022
$end
$version
	ModelSim Version 10.5b
$end
$timescale
	1ps
$end

$scope module demux_8_vhd_vec_tst $end
$var wire 1 ! A $end
$var wire 1 " S [2] $end
$var wire 1 # S [1] $end
$var wire 1 $ S [0] $end
$var wire 1 % Y [7] $end
$var wire 1 & Y [6] $end
$var wire 1 ' Y [5] $end
$var wire 1 ( Y [4] $end
$var wire 1 ) Y [3] $end
$var wire 1 * Y [2] $end
$var wire 1 + Y [1] $end
$var wire 1 , Y [0] $end

$scope module i1 $end
$var wire 1 - gnd $end
$var wire 1 . vcc $end
$var wire 1 / unknown $end
$var wire 1 0 devoe $end
$var wire 1 1 devclrn $end
$var wire 1 2 devpor $end
$var wire 1 3 ww_devoe $end
$var wire 1 4 ww_devclrn $end
$var wire 1 5 ww_devpor $end
$var wire 1 6 ww_A $end
$var wire 1 7 ww_S [2] $end
$var wire 1 8 ww_S [1] $end
$var wire 1 9 ww_S [0] $end
$var wire 1 : ww_Y [7] $end
$var wire 1 ; ww_Y [6] $end
$var wire 1 < ww_Y [5] $end
$var wire 1 = ww_Y [4] $end
$var wire 1 > ww_Y [3] $end
$var wire 1 ? ww_Y [2] $end
$var wire 1 @ ww_Y [1] $end
$var wire 1 A ww_Y [0] $end
$var wire 1 B \~QUARTUS_CREATED_ADC1~_CHSEL_bus\ [4] $end
$var wire 1 C \~QUARTUS_CREATED_ADC1~_CHSEL_bus\ [3] $end
$var wire 1 D \~QUARTUS_CREATED_ADC1~_CHSEL_bus\ [2] $end
$var wire 1 E \~QUARTUS_CREATED_ADC1~_CHSEL_bus\ [1] $end
$var wire 1 F \~QUARTUS_CREATED_ADC1~_CHSEL_bus\ [0] $end
$var wire 1 G \~QUARTUS_CREATED_GND~I_combout\ $end
$var wire 1 H \~QUARTUS_CREATED_UNVM~~busy\ $end
$var wire 1 I \~QUARTUS_CREATED_ADC1~~eoc\ $end
$var wire 1 J \Y[0]~output_o\ $end
$var wire 1 K \Y[1]~output_o\ $end
$var wire 1 L \Y[2]~output_o\ $end
$var wire 1 M \Y[3]~output_o\ $end
$var wire 1 N \Y[4]~output_o\ $end
$var wire 1 O \Y[5]~output_o\ $end
$var wire 1 P \Y[6]~output_o\ $end
$var wire 1 Q \Y[7]~output_o\ $end
$var wire 1 R \S[0]~input_o\ $end
$var wire 1 S \A~input_o\ $end
$var wire 1 T \Mux0~0_combout\ $end
$var wire 1 U \S[2]~input_o\ $end
$var wire 1 V \S[1]~input_o\ $end
$var wire 1 W \Mux1~0_combout\ $end
$var wire 1 X \Mux2~0_combout\ $end
$var wire 1 Y \Mux1~1_combout\ $end
$var wire 1 Z \Mux1~2_combout\ $end
$var wire 1 [ \Mux1~3_combout\ $end
$var wire 1 \ \Mux1~4_combout\ $end
$var wire 1 ] \Mux1~5_combout\ $end
$var wire 1 ^ \Mux1~6_combout\ $end
$var wire 1 _ \Mux1~7_combout\ $end
$upscope $end
$upscope $end
$enddefinitions $end
#0
$dumpvars
0!
0-
1.
x/
10
11
12
13
14
15
06
0G
zH
zI
0J
zK
zL
zM
zN
zO
zP
zQ
0R
0S
0T
0U
0V
1W
0X
0Y
0Z
0[
0\
0]
0^
0_
0"
0#
0$
07
08
09
z:
z;
z<
z=
z>
z?
z@
0A
0B
0C
0D
0E
0F
z%
z&
z'
z(
z)
z*
z+
0,
$end
#5000
1!
16
1S
1T
1J
1A
1,
#10000
0!
1$
06
19
1R
0S
0T
0W
1Y
0K
zJ
0@
zA
z,
0+
#15000
1!
16
1S
1X
1K
1@
1+
#20000
0!
0$
1#
06
09
18
1V
0R
0S
0X
0Y
1Z
0L
zK
0?
z@
z+
0*
#25000
1!
16
1S
1T
1L
1?
1*
#30000
0!
1$
06
19
1R
0S
0T
0Z
1[
0M
zL
0>
z?
z*
0)
#35000
1!
16
1S
1X
1M
1>
1)
#40000
0!
0$
0#
1"
06
09
08
17
1U
0V
0R
0S
0X
0[
1\
0N
zM
0=
z>
z)
0(
#45000
1!
16
1S
1T
1N
1=
1(
#50000
0!
1$
06
19
1R
0S
0T
0\
1]
0O
zN
0<
z=
z(
0'
#55000
1!
16
1S
1X
1O
1<
1'
#60000
0!
0$
1#
06
09
18
1V
0R
0S
0X
0]
1^
0P
zO
0;
z<
z'
0&
#65000
1!
16
1S
1T
1P
1;
1&
#70000
0!
1$
06
19
1R
0S
0T
0^
1_
0Q
zP
0:
z;
z&
0%
#75000
1!
16
1S
1X
1Q
1:
1%
#80000
0!
0$
0#
0"
06
09
08
07
0U
0V
0R
0S
0X
1W
0_
zQ
0J
z:
0A
0,
z%
#85000
1!
16
1S
1T
1J
1A
1,
#90000
0!
1$
06
19
1R
0S
0T
0W
1Y
0K
zJ
0@
zA
z,
0+
#95000
1!
16
1S
1X
1K
1@
1+
#100000
0!
0$
1#
06
09
18
1V
0R
0S
0X
0Y
1Z
0L
zK
0?
z@
z+
0*
#105000
1!
16
1S
1T
1L
1?
1*
#110000
0!
1$
06
19
1R
0S
0T
0Z
1[
0M
zL
0>
z?
z*
0)
#115000
1!
16
1S
1X
1M
1>
1)
#120000
0!
0$
0#
1"
06
09
08
17
1U
0V
0R
0S
0X
0[
1\
0N
zM
0=
z>
z)
0(
#125000
1!
16
1S
1T
1N
1=
1(
#130000
0!
1$
06
19
1R
0S
0T
0\
1]
0O
zN
0<
z=
z(
0'
#135000
1!
16
1S
1X
1O
1<
1'
#140000
0!
0$
1#
06
09
18
1V
0R
0S
0X
0]
1^
0P
zO
0;
z<
z'
0&
#145000
1!
16
1S
1T
1P
1;
1&
#150000
0!
1$
06
19
1R
0S
0T
0^
1_
0Q
zP
0:
z;
z&
0%
#155000
1!
16
1S
1X
1Q
1:
1%
#160000
0!
0$
0#
0"
06
09
08
07
0U
0V
0R
0S
0X
1W
0_
zQ
0J
z:
0A
0,
z%
#165000
1!
16
1S
1T
1J
1A
1,
#170000
0!
1$
06
19
1R
0S
0T
0W
1Y
0K
zJ
0@
zA
z,
0+
#175000
1!
16
1S
1X
1K
1@
1+
#180000
0!
0$
1#
06
09
18
1V
0R
0S
0X
0Y
1Z
0L
zK
0?
z@
z+
0*
#185000
1!
16
1S
1T
1L
1?
1*
#190000
0!
1$
06
19
1R
0S
0T
0Z
1[
0M
zL
0>
z?
z*
0)
#195000
1!
16
1S
1X
1M
1>
1)
#200000
0!
0$
0#
1"
06
09
08
17
1U
0V
0R
0S
0X
0[
1\
0N
zM
0=
z>
z)
0(
#205000
1!
16
1S
1T
1N
1=
1(
#210000
0!
1$
06
19
1R
0S
0T
0\
1]
0O
zN
0<
z=
z(
0'
#215000
1!
16
1S
1X
1O
1<
1'
#220000
0!
0$
1#
06
09
18
1V
0R
0S
0X
0]
1^
0P
zO
0;
z<
z'
0&
#225000
1!
16
1S
1T
1P
1;
1&
#230000
0!
1$
06
19
1R
0S
0T
0^
1_
0Q
zP
0:
z;
z&
0%
#235000
1!
16
1S
1X
1Q
1:
1%
#240000
0!
0$
0#
0"
06
09
08
07
0U
0V
0R
0S
0X
1W
0_
zQ
0J
z:
0A
0,
z%
#245000
1!
16
1S
1T
1J
1A
1,
#250000
0!
1$
06
19
1R
0S
0T
0W
1Y
0K
zJ
0@
zA
z,
0+
#255000
1!
16
1S
1X
1K
1@
1+
#260000
0!
0$
1#
06
09
18
1V
0R
0S
0X
0Y
1Z
0L
zK
0?
z@
z+
0*
#265000
1!
16
1S
1T
1L
1?
1*
#270000
0!
1$
06
19
1R
0S
0T
0Z
1[
0M
zL
0>
z?
z*
0)
#275000
1!
16
1S
1X
1M
1>
1)
#280000
0!
0$
0#
1"
06
09
08
17
1U
0V
0R
0S
0X
0[
1\
0N
zM
0=
z>
z)
0(
#285000
1!
16
1S
1T
1N
1=
1(
#290000
0!
1$
06
19
1R
0S
0T
0\
1]
0O
zN
0<
z=
z(
0'
#295000
1!
16
1S
1X
1O
1<
1'
#300000
0!
0$
1#
06
09
18
1V
0R
0S
0X
0]
1^
0P
zO
0;
z<
z'
0&
#305000
1!
16
1S
1T
1P
1;
1&
#310000
0!
1$
06
19
1R
0S
0T
0^
1_
0Q
zP
0:
z;
z&
0%
#315000
1!
16
1S
1X
1Q
1:
1%
#320000
0!
0$
0#
0"
06
09
08
07
0U
0V
0R
0S
0X
1W
0_
zQ
0J
z:
0A
0,
z%
#325000
1!
16
1S
1T
1J
1A
1,
#330000
0!
1$
06
19
1R
0S
0T
0W
1Y
0K
zJ
0@
zA
z,
0+
#335000
1!
16
1S
1X
1K
1@
1+
#340000
0!
0$
1#
06
09
18
1V
0R
0S
0X
0Y
1Z
0L
zK
0?
z@
z+
0*
#345000
1!
16
1S
1T
1L
1?
1*
#350000
0!
1$
06
19
1R
0S
0T
0Z
1[
0M
zL
0>
z?
z*
0)
#355000
1!
16
1S
1X
1M
1>
1)
#360000
0!
0$
0#
1"
06
09
08
17
1U
0V
0R
0S
0X
0[
1\
0N
zM
0=
z>
z)
0(
#365000
1!
16
1S
1T
1N
1=
1(
#370000
0!
1$
06
19
1R
0S
0T
0\
1]
0O
zN
0<
z=
z(
0'
#375000
1!
16
1S
1X
1O
1<
1'
#380000
0!
0$
1#
06
09
18
1V
0R
0S
0X
0]
1^
0P
zO
0;
z<
z'
0&
#385000
1!
16
1S
1T
1P
1;
1&
#390000
0!
1$
06
19
1R
0S
0T
0^
1_
0Q
zP
0:
z;
z&
0%
#395000
1!
16
1S
1X
1Q
1:
1%
#400000
0!
0$
0#
0"
06
09
08
07
0U
0V
0R
0S
0X
1W
0_
zQ
0J
z:
0A
0,
z%
#405000
1!
16
1S
1T
1J
1A
1,
#410000
0!
1$
06
19
1R
0S
0T
0W
1Y
0K
zJ
0@
zA
z,
0+
#415000
1!
16
1S
1X
1K
1@
1+
#420000
0!
0$
1#
06
09
18
1V
0R
0S
0X
0Y
1Z
0L
zK
0?
z@
z+
0*
#425000
1!
16
1S
1T
1L
1?
1*
#430000
0!
1$
06
19
1R
0S
0T
0Z
1[
0M
zL
0>
z?
z*
0)
#435000
1!
16
1S
1X
1M
1>
1)
#440000
0!
0$
0#
1"
06
09
08
17
1U
0V
0R
0S
0X
0[
1\
0N
zM
0=
z>
z)
0(
#445000
1!
16
1S
1T
1N
1=
1(
#450000
0!
1$
06
19
1R
0S
0T
0\
1]
0O
zN
0<
z=
z(
0'
#455000
1!
16
1S
1X
1O
1<
1'
#460000
0!
0$
1#
06
09
18
1V
0R
0S
0X
0]
1^
0P
zO
0;
z<
z'
0&
#465000
1!
16
1S
1T
1P
1;
1&
#470000
0!
1$
06
19
1R
0S
0T
0^
1_
0Q
zP
0:
z;
z&
0%
#475000
1!
16
1S
1X
1Q
1:
1%
#480000
0!
0$
0#
0"
06
09
08
07
0U
0V
0R
0S
0X
1W
0_
zQ
0J
z:
0A
0,
z%
#485000
1!
16
1S
1T
1J
1A
1,
#490000
0!
1$
06
19
1R
0S
0T
0W
1Y
0K
zJ
0@
zA
z,
0+
#495000
1!
16
1S
1X
1K
1@
1+
#500000
0!
0$
1#
06
09
18
1V
0R
0S
0X
0Y
1Z
0L
zK
0?
z@
z+
0*
#505000
1!
16
1S
1T
1L
1?
1*
#510000
0!
1$
06
19
1R
0S
0T
0Z
1[
0M
zL
0>
z?
z*
0)
#515000
1!
16
1S
1X
1M
1>
1)
#520000
0!
0$
0#
1"
06
09
08
17
1U
0V
0R
0S
0X
0[
1\
0N
zM
0=
z>
z)
0(
#525000
1!
16
1S
1T
1N
1=
1(
#530000
0!
1$
06
19
1R
0S
0T
0\
1]
0O
zN
0<
z=
z(
0'
#535000
1!
16
1S
1X
1O
1<
1'
#540000
0!
0$
1#
06
09
18
1V
0R
0S
0X
0]
1^
0P
zO
0;
z<
z'
0&
#545000
1!
16
1S
1T
1P
1;
1&
#550000
0!
1$
06
19
1R
0S
0T
0^
1_
0Q
zP
0:
z;
z&
0%
#555000
1!
16
1S
1X
1Q
1:
1%
#560000
0!
0$
0#
0"
06
09
08
07
0U
0V
0R
0S
0X
1W
0_
zQ
0J
z:
0A
0,
z%
#565000
1!
16
1S
1T
1J
1A
1,
#570000
0!
1$
06
19
1R
0S
0T
0W
1Y
0K
zJ
0@
zA
z,
0+
#575000
1!
16
1S
1X
1K
1@
1+
#580000
0!
0$
1#
06
09
18
1V
0R
0S
0X
0Y
1Z
0L
zK
0?
z@
z+
0*
#585000
1!
16
1S
1T
1L
1?
1*
#590000
0!
1$
06
19
1R
0S
0T
0Z
1[
0M
zL
0>
z?
z*
0)
#595000
1!
16
1S
1X
1M
1>
1)
#600000
0!
0$
0#
1"
06
09
08
17
1U
0V
0R
0S
0X
0[
1\
0N
zM
0=
z>
z)
0(
#605000
1!
16
1S
1T
1N
1=
1(
#610000
0!
1$
06
19
1R
0S
0T
0\
1]
0O
zN
0<
z=
z(
0'
#615000
1!
16
1S
1X
1O
1<
1'
#620000
0!
0$
1#
06
09
18
1V
0R
0S
0X
0]
1^
0P
zO
0;
z<
z'
0&
#625000
1!
16
1S
1T
1P
1;
1&
#630000
0!
1$
06
19
1R
0S
0T
0^
1_
0Q
zP
0:
z;
z&
0%
#635000
1!
16
1S
1X
1Q
1:
1%
#640000
0!
0$
0#
0"
06
09
08
07
0U
0V
0R
0S
0X
1W
0_
zQ
0J
z:
0A
0,
z%
#645000
1!
16
1S
1T
1J
1A
1,
#650000
0!
1$
06
19
1R
0S
0T
0W
1Y
0K
zJ
0@
zA
z,
0+
#655000
1!
16
1S
1X
1K
1@
1+
#660000
0!
0$
1#
06
09
18
1V
0R
0S
0X
0Y
1Z
0L
zK
0?
z@
z+
0*
#665000
1!
16
1S
1T
1L
1?
1*
#670000
0!
1$
06
19
1R
0S
0T
0Z
1[
0M
zL
0>
z?
z*
0)
#675000
1!
16
1S
1X
1M
1>
1)
#680000
0!
0$
0#
1"
06
09
08
17
1U
0V
0R
0S
0X
0[
1\
0N
zM
0=
z>
z)
0(
#685000
1!
16
1S
1T
1N
1=
1(
#690000
0!
1$
06
19
1R
0S
0T
0\
1]
0O
zN
0<
z=
z(
0'
#695000
1!
16
1S
1X
1O
1<
1'
#700000
0!
0$
1#
06
09
18
1V
0R
0S
0X
0]
1^
0P
zO
0;
z<
z'
0&
#705000
1!
16
1S
1T
1P
1;
1&
#710000
0!
1$
06
19
1R
0S
0T
0^
1_
0Q
zP
0:
z;
z&
0%
#715000
1!
16
1S
1X
1Q
1:
1%
#720000
0!
0$
0#
0"
06
09
08
07
0U
0V
0R
0S
0X
1W
0_
zQ
0J
z:
0A
0,
z%
#725000
1!
16
1S
1T
1J
1A
1,
#730000
0!
1$
06
19
1R
0S
0T
0W
1Y
0K
zJ
0@
zA
z,
0+
#735000
1!
16
1S
1X
1K
1@
1+
#740000
0!
0$
1#
06
09
18
1V
0R
0S
0X
0Y
1Z
0L
zK
0?
z@
z+
0*
#745000
1!
16
1S
1T
1L
1?
1*
#750000
0!
1$
06
19
1R
0S
0T
0Z
1[
0M
zL
0>
z?
z*
0)
#755000
1!
16
1S
1X
1M
1>
1)
#760000
0!
0$
0#
1"
06
09
08
17
1U
0V
0R
0S
0X
0[
1\
0N
zM
0=
z>
z)
0(
#765000
1!
16
1S
1T
1N
1=
1(
#770000
0!
1$
06
19
1R
0S
0T
0\
1]
0O
zN
0<
z=
z(
0'
#775000
1!
16
1S
1X
1O
1<
1'
#780000
0!
0$
1#
06
09
18
1V
0R
0S
0X
0]
1^
0P
zO
0;
z<
z'
0&
#785000
1!
16
1S
1T
1P
1;
1&
#790000
0!
1$
06
19
1R
0S
0T
0^
1_
0Q
zP
0:
z;
z&
0%
#795000
1!
16
1S
1X
1Q
1:
1%
#800000
0!
0$
0#
0"
06
09
08
07
0U
0V
0R
0S
0X
1W
0_
zQ
0J
z:
0A
0,
z%
#805000
1!
16
1S
1T
1J
1A
1,
#810000
0!
1$
06
19
1R
0S
0T
0W
1Y
0K
zJ
0@
zA
z,
0+
#815000
1!
16
1S
1X
1K
1@
1+
#820000
0!
0$
1#
06
09
18
1V
0R
0S
0X
0Y
1Z
0L
zK
0?
z@
z+
0*
#825000
1!
16
1S
1T
1L
1?
1*
#830000
0!
1$
06
19
1R
0S
0T
0Z
1[
0M
zL
0>
z?
z*
0)
#835000
1!
16
1S
1X
1M
1>
1)
#840000
0!
0$
0#
1"
06
09
08
17
1U
0V
0R
0S
0X
0[
1\
0N
zM
0=
z>
z)
0(
#845000
1!
16
1S
1T
1N
1=
1(
#850000
0!
1$
06
19
1R
0S
0T
0\
1]
0O
zN
0<
z=
z(
0'
#855000
1!
16
1S
1X
1O
1<
1'
#860000
0!
0$
1#
06
09
18
1V
0R
0S
0X
0]
1^
0P
zO
0;
z<
z'
0&
#865000
1!
16
1S
1T
1P
1;
1&
#870000
0!
1$
06
19
1R
0S
0T
0^
1_
0Q
zP
0:
z;
z&
0%
#875000
1!
16
1S
1X
1Q
1:
1%
#880000
0!
0$
0#
0"
06
09
08
07
0U
0V
0R
0S
0X
1W
0_
zQ
0J
z:
0A
0,
z%
#885000
1!
16
1S
1T
1J
1A
1,
#890000
0!
1$
06
19
1R
0S
0T
0W
1Y
0K
zJ
0@
zA
z,
0+
#895000
1!
16
1S
1X
1K
1@
1+
#900000
0!
0$
1#
06
09
18
1V
0R
0S
0X
0Y
1Z
0L
zK
0?
z@
z+
0*
#905000
1!
16
1S
1T
1L
1?
1*
#910000
0!
1$
06
19
1R
0S
0T
0Z
1[
0M
zL
0>
z?
z*
0)
#915000
1!
16
1S
1X
1M
1>
1)
#920000
0!
0$
0#
1"
06
09
08
17
1U
0V
0R
0S
0X
0[
1\
0N
zM
0=
z>
z)
0(
#925000
1!
16
1S
1T
1N
1=
1(
#930000
0!
1$
06
19
1R
0S
0T
0\
1]
0O
zN
0<
z=
z(
0'
#935000
1!
16
1S
1X
1O
1<
1'
#940000
0!
0$
1#
06
09
18
1V
0R
0S
0X
0]
1^
0P
zO
0;
z<
z'
0&
#945000
1!
16
1S
1T
1P
1;
1&
#950000
0!
1$
06
19
1R
0S
0T
0^
1_
0Q
zP
0:
z;
z&
0%
#955000
1!
16
1S
1X
1Q
1:
1%
#960000
0!
0$
0#
0"
06
09
08
07
0U
0V
0R
0S
0X
1W
0_
zQ
0J
z:
0A
0,
z%
#965000
1!
16
1S
1T
1J
1A
1,
#970000
0!
1$
06
19
1R
0S
0T
0W
1Y
0K
zJ
0@
zA
z,
0+
#975000
1!
16
1S
1X
1K
1@
1+
#980000
0!
0$
1#
06
09
18
1V
0R
0S
0X
0Y
1Z
0L
zK
0?
z@
z+
0*
#985000
1!
16
1S
1T
1L
1?
1*
#990000
0!
1$
06
19
1R
0S
0T
0Z
1[
0M
zL
0>
z?
z*
0)
#995000
1!
16
1S
1X
1M
1>
1)
