tutorial/08-VHDL-counter-4bit/simulation/qsim/EX10.msim.vcd
$comment
	File created using the following command:
		vcd file EX10.msim.vcd -direction
$end
$date
	Fri Apr 28 02:32:33 2023
$end
$version
	ModelSim Version 10.5b
$end
$timescale
	1ps
$end

$scope module counter4b_vhd_vec_tst $end
$var wire 1 ! CL $end
$var wire 1 " PulseIn $end
$var wire 1 # Q [3] $end
$var wire 1 $ Q [2] $end
$var wire 1 % Q [1] $end
$var wire 1 & Q [0] $end

$scope module i1 $end
$var wire 1 ' gnd $end
$var wire 1 ( vcc $end
$var wire 1 ) unknown $end
$var wire 1 * devoe $end
$var wire 1 + devclrn $end
$var wire 1 , devpor $end
$var wire 1 - ww_devoe $end
$var wire 1 . ww_devclrn $end
$var wire 1 / ww_devpor $end
$var wire 1 0 ww_CL $end
$var wire 1 1 ww_PulseIn $end
$var wire 1 2 ww_Q [3] $end
$var wire 1 3 ww_Q [2] $end
$var wire 1 4 ww_Q [1] $end
$var wire 1 5 ww_Q [0] $end
$var wire 1 6 \~QUARTUS_CREATED_ADC1~_CHSEL_bus\ [4] $end
$var wire 1 7 \~QUARTUS_CREATED_ADC1~_CHSEL_bus\ [3] $end
$var wire 1 8 \~QUARTUS_CREATED_ADC1~_CHSEL_bus\ [2] $end
$var wire 1 9 \~QUARTUS_CREATED_ADC1~_CHSEL_bus\ [1] $end
$var wire 1 : \~QUARTUS_CREATED_ADC1~_CHSEL_bus\ [0] $end
$var wire 1 ; \~QUARTUS_CREATED_ADC2~_CHSEL_bus\ [4] $end
$var wire 1 < \~QUARTUS_CREATED_ADC2~_CHSEL_bus\ [3] $end
$var wire 1 = \~QUARTUS_CREATED_ADC2~_CHSEL_bus\ [2] $end
$var wire 1 > \~QUARTUS_CREATED_ADC2~_CHSEL_bus\ [1] $end
$var wire 1 ? \~QUARTUS_CREATED_ADC2~_CHSEL_bus\ [0] $end
$var wire 1 @ \CL~inputclkctrl_INCLK_bus\ [3] $end
$var wire 1 A \CL~inputclkctrl_INCLK_bus\ [2] $end
$var wire 1 B \CL~inputclkctrl_INCLK_bus\ [1] $end
$var wire 1 C \CL~inputclkctrl_INCLK_bus\ [0] $end
$var wire 1 D \~QUARTUS_CREATED_GND~I_combout\ $end
$var wire 1 E \~QUARTUS_CREATED_UNVM~~busy\ $end
$var wire 1 F \~QUARTUS_CREATED_ADC1~~eoc\ $end
$var wire 1 G \~QUARTUS_CREATED_ADC2~~eoc\ $end
$var wire 1 H \Q[0]~output_o\ $end
$var wire 1 I \Q[1]~output_o\ $end
$var wire 1 J \Q[2]~output_o\ $end
$var wire 1 K \Q[3]~output_o\ $end
$var wire 1 L \PulseIn~input_o\ $end
$var wire 1 M \LP1:0:U|TMP~0_combout\ $end
$var wire 1 N \LP1:0:U|TMP~feeder_combout\ $end
$var wire 1 O \CL~input_o\ $end
$var wire 1 P \CL~inputclkctrl_outclk\ $end
$var wire 1 Q \LP1:0:U|TMP~q\ $end
$var wire 1 R \LP1:1:U|TMP~0_combout\ $end
$var wire 1 S \LP1:1:U|TMP~feeder_combout\ $end
$var wire 1 T \LP1:1:U|TMP~q\ $end
$var wire 1 U \LP1:2:U|TMP~0_combout\ $end
$var wire 1 V \LP1:2:U|TMP~feeder_combout\ $end
$var wire 1 W \LP1:2:U|TMP~q\ $end
$var wire 1 X \LP1:3:U|TMP~0_combout\ $end
$var wire 1 Y \LP1:3:U|TMP~q\ $end
$var wire 1 Z \ALT_INV_CL~inputclkctrl_outclk\ $end
$var wire 1 [ \LP1:2:U|ALT_INV_TMP~q\ $end
$var wire 1 \ \LP1:1:U|ALT_INV_TMP~q\ $end
$var wire 1 ] \LP1:0:U|ALT_INV_TMP~q\ $end
$upscope $end
$upscope $end
$enddefinitions $end
#0
$dumpvars
0!
0"
0'
1(
x)
1*
1+
1,
1-
1.
1/
00
01
0D
zE
zF
zG
0H
0I
0J
0K
0L
1M
1N
0O
0P
0Q
1R
1S
0T
1U
1V
0W
1X
0Y
1Z
1[
1\
1]
0#
0$
0%
0&
02
03
04
05
1@
1A
1B
0C
06
07
08
09
0:
0;
0<
0=
0>
0?
$end
#10000
1"
11
1L
1Q
0]
1H
0M
15
0N
1&
#20000
0"
01
0L
#30000
1"
11
1L
0Q
1]
0H
1M
1T
05
1N
0\
0&
1I
0R
14
0S
1%
#40000
0"
01
0L
#50000
1"
11
1L
1Q
0]
1H
0M
15
0N
1&
#60000
0"
01
0L
#70000
1"
11
1L
0Q
1]
0H
1M
0T
05
1N
1\
0&
0I
1R
1W
04
1S
0[
0%
1J
0U
13
0V
1$
#80000
0"
01
0L
#90000
1"
11
1L
1Q
0]
1H
0M
15
0N
1&
#100000
0"
01
0L
#110000
1"
11
1L
0Q
1]
0H
1M
1T
05
1N
0\
0&
1I
0R
14
0S
1%
#120000
0"
01
0L
#130000
1"
11
1L
1Q
0]
1H
0M
15
0N
1&
#140000
0"
01
0L
#150000
1"
11
1L
0Q
1]
0H
1M
0T
05
1N
1\
0&
0I
1R
0W
04
1S
1[
0%
0J
1U
1Y
03
1V
0$
1K
0X
12
1#
#160000
0"
01
0L
#170000
1"
11
1L
1Q
0]
1H
0M
15
0N
1&
#180000
0"
01
0L
#190000
1"
11
1L
0Q
1]
0H
1M
1T
05
1N
0\
0&
1I
0R
14
0S
1%
#200000
0"
01
0L
#210000
1"
11
1L
1Q
0]
1H
0M
15
0N
1&
#220000
0"
01
0L
#230000
1"
11
1L
0Q
1]
0H
1M
0T
05
1N
1\
0&
0I
1R
1W
04
1S
0[
0%
1J
0U
13
0V
1$
#240000
0"
01
0L
#250000
1"
11
1L
1Q
0]
1H
0M
15
0N
1&
#260000
0"
01
0L
#270000
1"
11
1L
0Q
1]
0H
1M
1T
05
1N
0\
0&
1I
0R
14
0S
1%
#280000
0"
01
0L
#290000
1"
11
1L
1Q
0]
1H
0M
15
0N
1&
#300000
0"
01
0L
#310000
1"
11
1L
0Q
1]
0H
1M
0T
05
1N
1\
0&
0I
1R
0W
04
1S
1[
0%
0J
1U
0Y
03
1V
0$
0K
1X
02
0#
#320000
0"
01
0L
#330000
1"
11
1L
1Q
0]
1H
0M
15
0N
1&
#340000
0"
01
0L
#350000
1"
11
1L
0Q
1]
0H
1M
1T
05
1N
0\
0&
1I
0R
14
0S
1%
#360000
0"
01
0L
#370000
1"
11
1L
1Q
0]
1H
0M
15
0N
1&
#380000
0"
01
0L
#390000
1"
1!
11
10
1O
1L
1C
0Q
1]
0H
1M
1P
0T
05
1N
1\
0Z
0&
0I
1R
04
1S
0%
#400000
0"
0!
01
00
0O
0L
0C
0P
1Z
#410000
1"
11
1L
1Q
0]
1H
0M
15
0N
1&
#420000
0"
01
0L
#430000
1"
11
1L
0Q
1]
0H
1M
1T
05
1N
0\
0&
1I
0R
14
0S
1%
#440000
0"
01
0L
#450000
1"
11
1L
1Q
0]
1H
0M
15
0N
1&
#460000
0"
01
0L
#470000
1"
11
1L
0Q
1]
0H
1M
0T
05
1N
1\
0&
0I
1R
1W
04
1S
0[
0%
1J
0U
13
0V
1$
#480000
0"
01
0L
#490000
1"
11
1L
1Q
0]
1H
0M
15
0N
1&
#500000
0"
01
0L
#510000
1"
11
1L
0Q
1]
0H
1M
1T
05
1N
0\
0&
1I
0R
14
0S
1%
#520000
0"
01
0L
#530000
1"
11
1L
1Q
0]
1H
0M
15
0N
1&
#540000
0"
01
0L
#550000
1"
11
1L
0Q
1]
0H
1M
0T
05
1N
1\
0&
0I
1R
0W
04
1S
1[
0%
0J
1U
1Y
03
1V
0$
1K
0X
12
1#
#560000
0"
01
0L
#570000
1"
11
1L
1Q
0]
1H
0M
15
0N
1&
#580000
0"
01
0L
#590000
1"
11
1L
0Q
1]
0H
1M
1T
05
1N
0\
0&
1I
0R
14
0S
1%
#600000
0"
01
0L
#610000
1"
11
1L
1Q
0]
1H
0M
15
0N
1&
#620000
0"
01
0L
#630000
1"
11
1L
0Q
1]
0H
1M
0T
05
1N
1\
0&
0I
1R
1W
04
1S
0[
0%
1J
0U
13
0V
1$
#640000
0"
01
0L
#650000
1"
11
1L
1Q
0]
1H
0M
15
0N
1&
#660000
0"
01
0L
#670000
1"
11
1L
0Q
1]
0H
1M
1T
05
1N
0\
0&
1I
0R
14
0S
1%
#680000
0"
01
0L
#690000
1"
11
1L
1Q
0]
1H
0M
15
0N
1&
#700000
0"
01
0L
#710000
1"
11
1L
0Q
1]
0H
1M
0T
05
1N
1\
0&
0I
1R
0W
04
1S
1[
0%
0J
1U
0Y
03
1V
0$
0K
1X
02
0#
#720000
0"
01
0L
#730000
1"
11
1L
1Q
0]
1H
0M
15
0N
1&
#740000
0"
01
0L
#750000
1"
11
1L
0Q
1]
0H
1M
1T
05
1N
0\
0&
1I
0R
14
0S
1%
#760000
0"
01
0L
#770000
1"
11
1L
1Q
0]
1H
0M
15
0N
1&
#780000
0"
01
0L
#790000
1"
11
1L
0Q
1]
0H
1M
0T
05
1N
1\
0&
0I
1R
1W
04
1S
0[
0%
1J
0U
13
0V
1$
#800000
0"
01
0L
#810000
1"
11
1L
1Q
0]
1H
0M
15
0N
1&
#820000
0"
01
0L
#830000
1"
11
1L
0Q
1]
0H
1M
1T
05
1N
0\
0&
1I
0R
14
0S
1%
#840000
0"
01
0L
#850000
1"
11
1L
1Q
0]
1H
0M
15
0N
1&
#860000
0"
01
0L
#870000
1"
11
1L
0Q
1]
0H
1M
0T
05
1N
1\
0&
0I
1R
0W
04
1S
1[
0%
0J
1U
1Y
03
1V
0$
1K
0X
12
1#
#880000
0"
01
0L
#890000
1"
11
1L
1Q
0]
1H
0M
15
0N
1&
#900000
0"
01
0L
#910000
1"
11
1L
0Q
1]
0H
1M
1T
05
1N
0\
0&
1I
0R
14
0S
1%
#920000
0"
01
0L
#930000
1"
11
1L
1Q
0]
1H
0M
15
0N
1&
#940000
0"
01
0L
#950000
1"
11
1L
0Q
1]
0H
1M
0T
05
1N
1\
0&
0I
1R
1W
04
1S
0[
0%
1J
0U
13
0V
1$
#960000
0"
01
0L
#970000
1"
11
1L
1Q
0]
1H
0M
15
0N
1&
#980000
0"
01
0L
#990000
1"
11
1L
0Q
1]
0H
1M
1T
05
1N
0\
0&
1I
0R
14
0S
1%
